Athlete,Name,Start,Stop,Depth_1,Depth_2,Day
Alessia Zecchini,prop_b 001,"1:30:27,331","1:30:27,331",,,1
Alessia Zecchini,prop_b 002,"1:30:28,731","1:30:28,731",,,1
Alessia Zecchini,prop_b 003,"1:30:30,521","1:30:30,521",,,1
Alessia Zecchini,prop_b 004,"1:30:32,361","1:30:32,361",,,1
Alessia Zecchini,prop_b 005,"1:30:34,521","1:30:34,521",,,1
Alessia Zecchini,prop_b 006,"1:30:36,641","1:30:36,641",,,1
Alessia Zecchini,prop_b 007,"1:30:39,721","1:30:39,721",,,1
Alessia Zecchini,prop_b 008,"1:30:42,641","1:30:42,641",,,1
Alessia Zecchini,prop_b 009,"1:30:46,011","1:30:46,011",,,1
Alessia Zecchini,prop_b 010,"1:30:49,391","1:30:49,391",,,1
Alessia Zecchini,prop_b 011,"1:30:52,531","1:30:52,531",,,1
Alessia Zecchini,prop_b 012,"1:30:56,341","1:30:56,341",,,1
Alessia Zecchini,prop_b 013,"1:30:59,931","1:30:59,931",,,1
Alessia Zecchini,prop_b 014,"1:31:49,022","1:31:49,022",,,1
Alessia Zecchini,prop_b 015,"1:31:51,172","1:31:51,172",,,1
Alessia Zecchini,prop_b 016,"1:31:53,172","1:31:53,172",,,1
Alessia Zecchini,prop_b 017,"1:31:55,412","1:31:55,412",,,1
Alessia Zecchini,prop_b 018,"1:31:58,202","1:31:58,202",,,1
Alessia Zecchini,prop_b 019,"1:32:00,692","1:32:00,692",,,1
Alessia Zecchini,prop_b 020,"1:32:03,692","1:32:03,692",,,1
Alessia Zecchini,prop_b 021,"1:32:06,142","1:32:06,142",,,1
Alessia Zecchini,prop_b 022,"1:32:09,372","1:32:09,372",,,1
Alessia Zecchini,prop_b 023,"1:32:12,012","1:32:12,012",,,1
Alessia Zecchini,prop_b 024,"1:32:14,672","1:32:14,672",,,1
Alessia Zecchini,prop_b 025,"1:32:17,462","1:32:17,462",,,1
Alessia Zecchini,prop_b 026,"1:32:20,362","1:32:20,362",,,1
Alessia Zecchini,prop_b 027,"1:32:23,062","1:32:23,062",,,1
Alessia Zecchini,prop_b 028,"1:32:25,933","1:32:25,933",,,1
Alessia Zecchini,prop_b 029,"1:32:28,549","1:32:28,549",,,1
Alessia Zecchini,prop_b 030,"1:32:31,219","1:32:31,219",,,1
Alessia Zecchini,prop_b 031,"1:32:34,059","1:32:34,059",,,1
Alessia Zecchini,prop_b 032,"1:32:36,949","1:32:36,949",,,1
Alessia Zecchini,prop_b 033,"1:32:39,549","1:32:39,549",,,1
Alessia Zecchini,prop_b 034,"1:32:42,998","1:32:42,998",,,1
Alessia Zecchini,prop_b 035,"1:32:46,295","1:32:46,295",,,1
Alessia Zecchini,prop_b 036,"1:32:49,885","1:32:49,885",,,1
Alessia Zecchini,prop_b 037,"1:32:53,245","1:32:53,245",,,1
Alessia Zecchini,prop_b 038,"1:32:56,975","1:32:56,975",,,1
Alessia Zecchini,prop_j 001,"1:30:26,599","1:30:26,599",,,1
Alessia Zecchini,prop_j 002,"1:30:28,416","1:30:28,416",,,1
Alessia Zecchini,prop_j 003,"1:30:29,996","1:30:29,996",,,1
Alessia Zecchini,prop_j 004,"1:30:31,966","1:30:31,966",,,1
Alessia Zecchini,prop_j 005,"1:30:33,956","1:30:33,956",,,1
Alessia Zecchini,prop_j 006,"1:30:36,206","1:30:36,206",,,1
Alessia Zecchini,prop_j 007,"1:30:38,806","1:30:38,806",,,1
Alessia Zecchini,prop_j 008,"1:30:41,596","1:30:41,596",,,1
Alessia Zecchini,prop_j 009,"1:30:44,656","1:30:44,656",,,1
Alessia Zecchini,prop_j 010,"1:30:48,186","1:30:48,186",,,1
Alessia Zecchini,prop_j 011,"1:30:51,796","1:30:51,796",,,1
Alessia Zecchini,prop_j 012,"1:30:55,276","1:30:55,276",,,1
Alessia Zecchini,prop_j 013,"1:30:58,996","1:30:58,996",,,1
Alessia Zecchini,prop_j 014,"1:31:02,726","1:31:02,726",,,1
Alessia Zecchini,prop_j 015,"1:31:06,126","1:31:06,126",,,1
Alessia Zecchini,prop_j 016,"1:31:48,570","1:31:48,570",,,1
Alessia Zecchini,prop_j 017,"1:31:50,490","1:31:50,490",,,1
Alessia Zecchini,prop_j 018,"1:31:52,770","1:31:52,770",,,1
Alessia Zecchini,prop_j 019,"1:31:55,140","1:31:55,140",,,1
Alessia Zecchini,prop_j 020,"1:31:57,820","1:31:57,820",,,1
Alessia Zecchini,prop_j 021,"1:32:00,550","1:32:00,550",,,1
Alessia Zecchini,prop_j 022,"1:32:03,210","1:32:03,210",,,1
Alessia Zecchini,prop_j 023,"1:32:06,010","1:32:06,010",,,1
Alessia Zecchini,prop_j 024,"1:32:08,820","1:32:08,820",,,1
Alessia Zecchini,prop_j 025,"1:32:11,570","1:32:11,570",,,1
Alessia Zecchini,prop_j 026,"1:32:14,170","1:32:14,170",,,1
Alessia Zecchini,prop_j 027,"1:32:17,060","1:32:17,060",,,1
Alessia Zecchini,prop_j 028,"1:32:19,840","1:32:19,840",,,1
Alessia Zecchini,prop_j 029,"1:32:22,680","1:32:22,680",,,1
Alessia Zecchini,prop_j 030,"1:32:25,590","1:32:25,590",,,1
Alessia Zecchini,prop_j 031,"1:32:28,330","1:32:28,330",,,1
Alessia Zecchini,prop_j 032,"1:32:31,000","1:32:31,000",,,1
Alessia Zecchini,prop_j 033,"1:32:34,200","1:32:34,200",,,1
Alessia Zecchini,prop_j 034,"1:32:36,680","1:32:36,680",,,1
Alessia Zecchini,prop_j 035,"1:32:39,480","1:32:39,480",,,1
Alessia Zecchini,prop_j 036,"1:32:42,680","1:32:42,680",,,1
Alessia Zecchini,prop_j 037,"1:32:46,040","1:32:46,040",,,1
Alessia Zecchini,prop_j 038,"1:32:49,710","1:32:49,710",,,1
Alessia Zecchini,prop_j 039,"1:32:52,990","1:32:52,990",,,1
Alessia Zecchini,prop_j 040,"1:32:56,730","1:32:56,730",,,1
Alessia Zecchini,prop_j 041,"1:33:00,580","1:33:00,580",,,1
Alessia Zecchini,prop_j 042,"1:33:06,150","1:33:06,150",,,1
Alessia Zecchini,tag 001,"1:31:44,467","1:31:44,467",,,1
Alessia Zecchini,desc 001,"1:30:21,481","1:31:43,492",,,1
Alessia Zecchini,asc 001,"1:31:48,733","1:33:16,085",,,1
Alessia Zecchini,virage 001,"1:31:44,042","1:31:48,733",,,1
Alessia Zecchini,dp1 001,"1:30:21,931","1:30:21,931",,,1
Alessia Zecchini,dp1 002,"1:30:22,761","1:30:22,761",,,1
Alessia Zecchini,dp1 003,"1:30:23,411","1:30:23,411",,,1
Alessia Zecchini,dp1 004,"1:30:23,971","1:30:23,971",,,1
Alessia Zecchini,dp1 005,"1:30:24,631","1:30:24,631",,,1
Alessia Zecchini,dp1 006,"1:30:25,241","1:30:25,241",,,1
Alessia Zecchini,dp1 007,"1:30:25,891","1:30:25,891",,,1
Alessia Zecchini,dp1 008,"1:30:26,741","1:30:26,741",,,1
Alessia Zecchini,dp1 009,"1:30:27,551","1:30:27,551",,,1
Alessia Zecchini,dp1 010,"1:30:28,421","1:30:28,421",,,1
Alessia Zecchini,dp1 011,"1:30:29,351","1:30:29,351",,,1
Alessia Zecchini,dp1 012,"1:30:37,191","1:30:37,191",,,1
Alessia Zecchini,dp1 013,"1:30:38,791","1:30:38,791",,,1
Alessia Zecchini,dp1 014,"1:30:39,601","1:30:39,601",,,1
Alessia Zecchini,dp1 015,"1:30:41,021","1:30:41,021",,,1
Alessia Zecchini,dp1 016,"1:30:43,151","1:30:43,151",,,1
Alessia Zecchini,dp1 017,"1:30:44,691","1:30:44,691",,,1
Alessia Zecchini,dp1 018,"1:30:45,741","1:30:45,741",,,1
Alessia Zecchini,dp1 019,"1:30:47,191","1:30:47,191",,,1
Alessia Zecchini,dp1 020,"1:30:47,961","1:30:47,961",,,1
Alessia Zecchini,dp1 021,"1:30:49,001","1:30:49,001",,,1
Alessia Zecchini,dp1 022,"1:30:50,471","1:30:50,471",,,1
Alessia Zecchini,dp1 023,"1:30:51,521","1:30:51,521",,,1
Alessia Zecchini,dp1 024,"1:30:52,281","1:30:52,281",,,1
Alessia Zecchini,dp1 025,"1:30:53,701","1:30:53,701",,,1
Alessia Zecchini,dp1 026,"1:30:54,491","1:30:54,491",,,1
Alessia Zecchini,dp1 027,"1:30:55,531","1:30:55,531",,,1
Alessia Zecchini,dp1 028,"1:30:56,661","1:30:56,661",,,1
Alessia Zecchini,dp1 029,"1:30:57,351","1:30:57,351",,,1
Alessia Zecchini,dp1 030,"1:30:58,831","1:30:58,831",,,1
Alessia Zecchini,dp1 031,"1:30:59,541","1:30:59,541",,,1
Alessia Zecchini,dp1 032,"1:31:01,011","1:31:01,011",,,1
Alessia Zecchini,dp1 033,"1:31:01,701","1:31:01,701",,,1
Alessia Zecchini,dp1 034,"1:31:02,471","1:31:02,471",,,1
Alessia Zecchini,dp1 035,"1:31:03,481","1:31:03,481",,,1
Alessia Zecchini,dp1 036,"1:31:04,261","1:31:04,261",,,1
Alessia Zecchini,dp1 037,"1:31:05,341","1:31:05,341",,,1
Alessia Zecchini,dp1 038,"1:31:06,821","1:31:06,821",,,1
Alessia Zecchini,dp1 039,"1:31:07,871","1:31:07,871",,,1
Alessia Zecchini,dp1 040,"1:31:08,981","1:31:08,981",,,1
Alessia Zecchini,dp1 041,"1:31:10,421","1:31:10,421",,,1
Alessia Zecchini,dp1 042,"1:31:11,561","1:31:11,561",,,1
Alessia Zecchini,dp1 043,"1:31:12,611","1:31:12,611",,,1
Alessia Zecchini,dp1 044,"1:31:14,441","1:31:14,441",,,1
Alessia Zecchini,dp1 045,"1:31:15,861","1:31:15,861",,,1
Alessia Zecchini,dp1 046,"1:31:17,701","1:31:17,701",,,1
Alessia Zecchini,dp1 047,"1:31:19,531","1:31:19,531",,,1
Alessia Zecchini,dp1 048,"1:31:20,631","1:31:20,631",,,1
Alessia Zecchini,dp1 049,"1:31:21,681","1:31:21,681",,,1
Alessia Zecchini,dp1 050,"1:31:23,171","1:31:23,171",,,1
Alessia Zecchini,dp1 051,"1:31:24,331","1:31:24,331",,,1
Alessia Zecchini,dp1 052,"1:31:26,081","1:31:26,081",,,1
Alessia Zecchini,dp1 053,"1:31:26,811","1:31:26,811",,,1
Alessia Zecchini,dp1 054,"1:31:28,611","1:31:28,611",,,1
Alessia Zecchini,dp1 055,"1:31:29,681","1:31:29,681",,,1
Alessia Zecchini,dp1 056,"1:31:30,821","1:31:30,821",,,1
Alessia Zecchini,dp1 057,"1:31:31,891","1:31:31,891",,,1
Alessia Zecchini,dp1 058,"1:31:33,671","1:31:33,671",,,1
Alessia Zecchini,dp1 059,"1:31:34,441","1:31:34,441",,,1
Alessia Zecchini,dp1 060,"1:31:35,511","1:31:35,511",,,1
Alessia Zecchini,dp1 061,"1:31:36,951","1:31:36,951",,,1
Alessia Zecchini,dp1 062,"1:31:38,411","1:31:38,411",,,1
Alessia Zecchini,dp1 063,"1:31:39,501","1:31:39,501",,,1
Alessia Zecchini,dp1 064,"1:31:40,611","1:31:40,611",,,1
Alessia Zecchini,dp1 065,"1:31:42,051","1:31:42,051",,,1
Alessia Zecchini,dp1 066,"1:31:43,501","1:31:43,501",,,1
Alessia Zecchini,dp1 067,"1:31:44,961","1:31:44,961",,,1
Alessia Zecchini,dm1 001,"1:31:45,381","1:31:45,381",,,1
Alessia Zecchini,dm1 002,"1:31:51,191","1:31:51,191",,,1
Alessia Zecchini,dm1 003,"1:31:51,901","1:31:51,901",,,1
Alessia Zecchini,dm1 004,"1:31:52,621","1:31:52,621",,,1
Alessia Zecchini,dm1 005,"1:31:54,031","1:31:54,031",,,1
Alessia Zecchini,dm1 006,"1:31:54,761","1:31:54,761",,,1
Alessia Zecchini,dm1 007,"1:31:55,531","1:31:55,531",,,1
Alessia Zecchini,dm1 008,"1:31:56,241","1:31:56,241",,,1
Alessia Zecchini,dm1 009,"1:32:00,261","1:32:00,261",,,1
Alessia Zecchini,dm1 010,"1:32:01,651","1:32:01,651",,,1
Alessia Zecchini,dm1 011,"1:32:02,531","1:32:02,531",,,1
Alessia Zecchini,dm1 012,"1:32:03,211","1:32:03,211",,,1
Alessia Zecchini,dm1 013,"1:32:05,291","1:32:05,291",,,1
Alessia Zecchini,dm1 014,"1:32:06,411","1:32:06,411",,,1
Alessia Zecchini,dm1 015,"1:32:08,271","1:32:08,271",,,1
Alessia Zecchini,dm1 016,"1:32:10,151","1:32:10,151",,,1
Alessia Zecchini,dm1 017,"1:32:10,841","1:32:10,841",,,1
Alessia Zecchini,dm1 018,"1:32:12,601","1:32:12,601",,,1
Alessia Zecchini,dm1 019,"1:32:13,491","1:32:13,491",,,1
Alessia Zecchini,dm1 020,"1:32:15,071","1:32:15,071",,,1
Alessia Zecchini,dm1 021,"1:32:16,231","1:32:16,231",,,1
Alessia Zecchini,dm1 022,"1:32:17,661","1:32:17,661",,,1
Alessia Zecchini,dm1 023,"1:32:19,841","1:32:19,841",,,1
Alessia Zecchini,dm1 024,"1:32:21,381","1:32:21,381",,,1
Alessia Zecchini,dm1 025,"1:32:23,141","1:32:23,141",,,1
Alessia Zecchini,dm1 026,"1:32:24,571","1:32:24,571",,,1
Alessia Zecchini,dm1 027,"1:32:25,681","1:32:25,681",,,1
Alessia Zecchini,dm1 028,"1:32:27,121","1:32:27,121",,,1
Alessia Zecchini,dm1 029,"1:32:28,921","1:32:28,921",,,1
Alessia Zecchini,dm1 030,"1:32:31,451","1:32:31,451",,,1
Alessia Zecchini,dm1 031,"1:32:31,781","1:32:31,781",,,1
Alessia Zecchini,dm1 032,"1:32:32,591","1:32:32,591",,,1
Alessia Zecchini,dm1 033,"1:32:33,721","1:32:33,721",,,1
Alessia Zecchini,dm1 034,"1:32:35,461","1:32:35,461",,,1
Alessia Zecchini,dm1 035,"1:32:36,291","1:32:36,291",,,1
Alessia Zecchini,dm1 036,"1:32:37,271","1:32:37,271",,,1
Alessia Zecchini,dm1 037,"1:32:40,531","1:32:40,531",,,1
Alessia Zecchini,dm1 038,"1:32:41,691","1:32:41,691",,,1
Alessia Zecchini,dm1 039,"1:32:42,721","1:32:42,721",,,1
Alessia Zecchini,dm1 040,"1:32:43,851","1:32:43,851",,,1
Alessia Zecchini,dm1 041,"1:32:44,911","1:32:44,911",,,1
Alessia Zecchini,dm1 042,"1:32:46,351","1:32:46,351",,,1
Alessia Zecchini,dm1 043,"1:32:47,821","1:32:47,821",,,1
Alessia Zecchini,dm1 044,"1:32:49,651","1:32:49,651",,,1
Alessia Zecchini,dm1 045,"1:32:51,831","1:32:51,831",,,1
Alessia Zecchini,dm1 046,"1:32:53,291","1:32:53,291",,,1
Alessia Zecchini,dm1 047,"1:32:54,481","1:32:54,481",,,1
Alessia Zecchini,dm1 048,"1:32:55,151","1:32:55,151",,,1
Alessia Zecchini,dm1 049,"1:32:57,281","1:32:57,281",,,1
Alessia Zecchini,dm1 050,"1:32:58,071","1:32:58,071",,,1
Alessia Zecchini,dm1 051,"1:32:59,831","1:32:59,831",,,1
Alessia Zecchini,dm1 052,"1:33:00,541","1:33:00,541",,,1
Alessia Zecchini,dm1 053,"1:33:02,041","1:33:02,041",,,1
Alessia Zecchini,dm1 054,"1:33:04,141","1:33:04,141",,,1
Alessia Zecchini,dm1 055,"1:33:05,301","1:33:05,301",,,1
Alessia Zecchini,dm1 056,"1:33:06,731","1:33:06,731",,,1
Alessia Zecchini,dm1 057,"1:33:07,481","1:33:07,481",,,1
