﻿Athlete,Name,Start,Stop,Depth_1,Depth_2
Aleksandr Kostyshen,hips 001,"2:10:24,280","2:10:24,280",,
Aleksandr Kostyshen,hips 002,"2:10:24,879","2:10:24,879",,
Aleksandr Kostyshen,hips 003,"2:10:25,876","2:10:25,876",,
Aleksandr Kostyshen,hips 004,"2:10:26,811","2:10:26,811",,
Aleksandr Kostyshen,hips 005,"2:10:27,666","2:10:27,666",,
Aleksandr Kostyshen,hips 006,"2:10:28,448","2:10:28,448",,
Aleksandr Kostyshen,hips 007,"2:10:29,583","2:10:29,583",,
Aleksandr Kostyshen,hips 008,"2:10:30,617","2:10:30,617",,
Aleksandr Kostyshen,hips 009,"2:10:31,576","2:10:31,576",,
Aleksandr Kostyshen,hips 010,"2:10:32,929","2:10:32,929",,
Aleksandr Kostyshen,hips 011,"2:10:34,316","2:10:34,316",,
Aleksandr Kostyshen,hips 012,"2:10:35,234","2:10:35,234",,
Aleksandr Kostyshen,hips 013,"2:11:42,933","2:11:42,933",,
Aleksandr Kostyshen,hips 014,"2:11:43,780","2:11:43,780",,
Aleksandr Kostyshen,hips 015,"2:11:44,620","2:11:44,620",,
Aleksandr Kostyshen,hips 016,"2:11:45,316","2:11:45,316",,
Aleksandr Kostyshen,hips 017,"2:11:45,828","2:11:45,828",,
Aleksandr Kostyshen,hips 018,"2:11:46,364","2:11:46,364",,
Aleksandr Kostyshen,hips 019,"2:11:46,940","2:11:46,940",,
Aleksandr Kostyshen,hips 020,"2:11:47,556","2:11:47,556",,
Aleksandr Kostyshen,hips 021,"2:11:48,156","2:11:48,156",,
Aleksandr Kostyshen,hips 022,"2:11:48,748","2:11:48,748",,
Aleksandr Kostyshen,hips 023,"2:11:49,348","2:11:49,348",,
Aleksandr Kostyshen,hips 024,"2:11:49,980","2:11:49,980",,
Aleksandr Kostyshen,hips 025,"2:11:50,540","2:11:50,540",,
Aleksandr Kostyshen,hips 026,"2:11:51,140","2:11:51,140",,
Aleksandr Kostyshen,hips 027,"2:11:51,724","2:11:51,724",,
Aleksandr Kostyshen,hips 028,"2:11:52,204","2:11:52,204",,
Aleksandr Kostyshen,hips 029,"2:11:52,756","2:11:52,756",,
Aleksandr Kostyshen,hips 030,"2:11:53,228","2:11:53,228",,
Aleksandr Kostyshen,hips 031,"2:11:53,788","2:11:53,788",,
Aleksandr Kostyshen,hips 032,"2:11:54,324","2:11:54,324",,
Aleksandr Kostyshen,hips 033,"2:11:54,940","2:11:54,940",,
Aleksandr Kostyshen,hips 034,"2:11:55,476","2:11:55,476",,
Aleksandr Kostyshen,hips 035,"2:11:56,004","2:11:56,004",,
Aleksandr Kostyshen,hips 036,"2:11:56,556","2:11:56,556",,
Aleksandr Kostyshen,hips 037,"2:11:57,172","2:11:57,172",,
Aleksandr Kostyshen,hips 038,"2:11:57,740","2:11:57,740",,
Aleksandr Kostyshen,hips 039,"2:11:58,268","2:11:58,268",,
Aleksandr Kostyshen,hips 040,"2:11:58,812","2:11:58,812",,
Aleksandr Kostyshen,hips 041,"2:11:59,396","2:11:59,396",,
Aleksandr Kostyshen,hips 042,"2:11:59,932","2:11:59,932",,
Aleksandr Kostyshen,hips 043,"2:12:00,476","2:12:00,476",,
Aleksandr Kostyshen,hips 044,"2:12:01,028","2:12:01,028",,
Aleksandr Kostyshen,hips 045,"2:12:01,588","2:12:01,588",,
Aleksandr Kostyshen,hips 046,"2:12:02,044","2:12:02,044",,
Aleksandr Kostyshen,hips 047,"2:12:02,572","2:12:02,572",,
Aleksandr Kostyshen,hips 048,"2:12:03,236","2:12:03,236",,
Aleksandr Kostyshen,hips 049,"2:12:03,756","2:12:03,756",,
Aleksandr Kostyshen,hips 050,"2:12:04,324","2:12:04,324",,
Aleksandr Kostyshen,hips 051,"2:12:04,948","2:12:04,948",,
Aleksandr Kostyshen,hips 052,"2:12:05,572","2:12:05,572",,
Aleksandr Kostyshen,hips 053,"2:12:06,060","2:12:06,060",,
Aleksandr Kostyshen,hips 054,"2:12:06,612","2:12:06,612",,
Aleksandr Kostyshen,hips 055,"2:12:07,172","2:12:07,172",,
Aleksandr Kostyshen,hips 056,"2:12:07,692","2:12:07,692",,
Aleksandr Kostyshen,hips 057,"2:12:08,276","2:12:08,276",,
Aleksandr Kostyshen,hips 058,"2:12:08,884","2:12:08,884",,
Aleksandr Kostyshen,hips 059,"2:12:09,548","2:12:09,548",,
Aleksandr Kostyshen,hips 060,"2:12:10,020","2:12:10,020",,
Aleksandr Kostyshen,hips 061,"2:12:10,532","2:12:10,532",,
Aleksandr Kostyshen,hips 062,"2:12:11,004","2:12:11,004",,
Aleksandr Kostyshen,hips 063,"2:12:11,572","2:12:11,572",,
Aleksandr Kostyshen,hips 064,"2:12:12,116","2:12:12,116",,
Aleksandr Kostyshen,hips 065,"2:12:12,588","2:12:12,588",,
Aleksandr Kostyshen,hips 066,"2:12:13,092","2:12:13,092",,
Aleksandr Kostyshen,hips 067,"2:12:13,556","2:12:13,556",,
Aleksandr Kostyshen,hips 068,"2:12:14,300","2:12:14,300",,
Aleksandr Kostyshen,hips 069,"2:12:14,868","2:12:14,868",,
Aleksandr Kostyshen,hips 070,"2:12:15,380","2:12:15,380",,
Aleksandr Kostyshen,hips 071,"2:12:15,988","2:12:15,988",,
Aleksandr Kostyshen,hips 072,"2:12:16,564","2:12:16,564",,
Aleksandr Kostyshen,hips 073,"2:12:17,004","2:12:17,004",,
Aleksandr Kostyshen,hips 074,"2:12:17,668","2:12:17,668",,
Aleksandr Kostyshen,hips 075,"2:12:18,316","2:12:18,316",,
Aleksandr Kostyshen,hips 076,"2:12:18,996","2:12:18,996",,
Aleksandr Kostyshen,hips 077,"2:12:19,516","2:12:19,516",,
Aleksandr Kostyshen,hips 078,"2:12:20,132","2:12:20,132",,
Aleksandr Kostyshen,hips 079,"2:12:20,764","2:12:20,764",,
Aleksandr Kostyshen,hips 080,"2:12:21,284","2:12:21,284",,
Aleksandr Kostyshen,hips 081,"2:12:21,844","2:12:21,844",,
Aleksandr Kostyshen,hips 082,"2:12:22,476","2:12:22,476",,
Aleksandr Kostyshen,hips 083,"2:12:22,980","2:12:22,980",,
Aleksandr Kostyshen,hips 084,"2:12:23,524","2:12:23,524",,
Aleksandr Kostyshen,hips 085,"2:12:24,140","2:12:24,140",,
Aleksandr Kostyshen,hips 086,"2:12:24,852","2:12:24,852",,
Aleksandr Kostyshen,hips 087,"2:12:25,452","2:12:25,452",,
Aleksandr Kostyshen,hips 088,"2:12:25,996","2:12:25,996",,
Aleksandr Kostyshen,knees 001,"2:10:24,480","2:10:24,480",,
Aleksandr Kostyshen,knees 002,"2:10:25,440","2:10:25,440",,
Aleksandr Kostyshen,knees 003,"2:10:26,400","2:10:26,400",,
Aleksandr Kostyshen,knees 004,"2:10:27,360","2:10:27,360",,
Aleksandr Kostyshen,knees 005,"2:10:28,184","2:10:28,184",,
Aleksandr Kostyshen,knees 006,"2:10:29,088","2:10:29,088",,
Aleksandr Kostyshen,knees 007,"2:10:30,176","2:10:30,176",,
Aleksandr Kostyshen,knees 008,"2:10:31,104","2:10:31,104",,
Aleksandr Kostyshen,knees 009,"2:10:32,336","2:10:32,336",,
Aleksandr Kostyshen,knees 010,"2:10:33,640","2:10:33,640",,
Aleksandr Kostyshen,knees 011,"2:10:34,856","2:10:34,856",,
Aleksandr Kostyshen,knees 012,"2:10:37,704","2:10:37,704",,
Aleksandr Kostyshen,knees 013,"2:11:42,427","2:11:42,427",,
Aleksandr Kostyshen,knees 014,"2:11:43,217","2:11:43,217",,
Aleksandr Kostyshen,knees 015,"2:11:44,267","2:11:44,267",,
Aleksandr Kostyshen,knees 016,"2:11:44,937","2:11:44,937",,
Aleksandr Kostyshen,knees 017,"2:11:45,547","2:11:45,547",,
Aleksandr Kostyshen,knees 018,"2:11:46,017","2:11:46,017",,
Aleksandr Kostyshen,knees 019,"2:11:46,497","2:11:46,497",,
Aleksandr Kostyshen,knees 020,"2:11:47,047","2:11:47,047",,
Aleksandr Kostyshen,knees 021,"2:11:47,617","2:11:47,617",,
Aleksandr Kostyshen,knees 022,"2:11:48,197","2:11:48,197",,
Aleksandr Kostyshen,knees 023,"2:11:48,787","2:11:48,787",,
Aleksandr Kostyshen,knees 024,"2:11:49,527","2:11:49,527",,
Aleksandr Kostyshen,knees 025,"2:11:50,137","2:11:50,137",,
Aleksandr Kostyshen,knees 026,"2:11:50,677","2:11:50,677",,
Aleksandr Kostyshen,knees 027,"2:11:51,397","2:11:51,397",,
Aleksandr Kostyshen,knees 028,"2:11:51,987","2:11:51,987",,
Aleksandr Kostyshen,knees 029,"2:11:52,527","2:11:52,527",,
Aleksandr Kostyshen,knees 030,"2:11:52,997","2:11:52,997",,
Aleksandr Kostyshen,knees 031,"2:11:53,527","2:11:53,527",,
Aleksandr Kostyshen,knees 032,"2:11:54,097","2:11:54,097",,
Aleksandr Kostyshen,knees 033,"2:11:54,657","2:11:54,657",,
Aleksandr Kostyshen,knees 034,"2:11:55,237","2:11:55,237",,
Aleksandr Kostyshen,knees 035,"2:11:55,817","2:11:55,817",,
Aleksandr Kostyshen,knees 036,"2:11:56,397","2:11:56,397",,
Aleksandr Kostyshen,knees 037,"2:11:56,957","2:11:56,957",,
Aleksandr Kostyshen,knees 038,"2:11:57,607","2:11:57,607",,
Aleksandr Kostyshen,knees 039,"2:11:58,107","2:11:58,107",,
Aleksandr Kostyshen,knees 040,"2:11:58,657","2:11:58,657",,
Aleksandr Kostyshen,knees 041,"2:11:59,217","2:11:59,217",,
Aleksandr Kostyshen,knees 042,"2:11:59,767","2:11:59,767",,
Aleksandr Kostyshen,knees 043,"2:12:00,357","2:12:00,357",,
Aleksandr Kostyshen,knees 044,"2:12:00,907","2:12:00,907",,
Aleksandr Kostyshen,knees 045,"2:12:01,427","2:12:01,427",,
Aleksandr Kostyshen,knees 046,"2:12:02,007","2:12:02,007",,
Aleksandr Kostyshen,knees 047,"2:12:02,507","2:12:02,507",,
Aleksandr Kostyshen,knees 048,"2:12:03,047","2:12:03,047",,
Aleksandr Kostyshen,knees 049,"2:12:03,677","2:12:03,677",,
Aleksandr Kostyshen,knees 050,"2:12:04,217","2:12:04,217",,
Aleksandr Kostyshen,knees 051,"2:12:04,767","2:12:04,767",,
Aleksandr Kostyshen,knees 052,"2:12:05,177","2:12:05,177",,
Aleksandr Kostyshen,knees 053,"2:12:05,887","2:12:05,887",,
Aleksandr Kostyshen,knees 054,"2:12:06,437","2:12:06,437",,
Aleksandr Kostyshen,knees 055,"2:12:06,977","2:12:06,977",,
Aleksandr Kostyshen,knees 056,"2:12:07,577","2:12:07,577",,
Aleksandr Kostyshen,knees 057,"2:12:08,037","2:12:08,037",,
Aleksandr Kostyshen,knees 058,"2:12:08,687","2:12:08,687",,
Aleksandr Kostyshen,knees 059,"2:12:09,197","2:12:09,197",,
Aleksandr Kostyshen,knees 060,"2:12:09,857","2:12:09,857",,
Aleksandr Kostyshen,knees 061,"2:12:10,417","2:12:10,417",,
Aleksandr Kostyshen,knees 062,"2:12:10,997","2:12:10,997",,
Aleksandr Kostyshen,knees 063,"2:12:11,557","2:12:11,557",,
Aleksandr Kostyshen,knees 064,"2:12:12,157","2:12:12,157",,
Aleksandr Kostyshen,knees 065,"2:12:12,657","2:12:12,657",,
Aleksandr Kostyshen,knees 066,"2:12:13,157","2:12:13,157",,
Aleksandr Kostyshen,knees 067,"2:12:13,727","2:12:13,727",,
Aleksandr Kostyshen,knees 068,"2:12:14,287","2:12:14,287",,
Aleksandr Kostyshen,knees 069,"2:12:14,837","2:12:14,837",,
Aleksandr Kostyshen,knees 070,"2:12:15,357","2:12:15,357",,
Aleksandr Kostyshen,knees 071,"2:12:15,867","2:12:15,867",,
Aleksandr Kostyshen,knees 072,"2:12:16,457","2:12:16,457",,
Aleksandr Kostyshen,knees 073,"2:12:17,087","2:12:17,087",,
Aleksandr Kostyshen,knees 074,"2:12:17,627","2:12:17,627",,
Aleksandr Kostyshen,knees 075,"2:12:18,307","2:12:18,307",,
Aleksandr Kostyshen,knees 076,"2:12:18,887","2:12:18,887",,
Aleksandr Kostyshen,knees 077,"2:12:19,397","2:12:19,397",,
Aleksandr Kostyshen,knees 078,"2:12:19,987","2:12:19,987",,
Aleksandr Kostyshen,knees 079,"2:12:20,597","2:12:20,597",,
Aleksandr Kostyshen,knees 080,"2:12:21,187","2:12:21,187",,
Aleksandr Kostyshen,knees 081,"2:12:21,837","2:12:21,837",,
Aleksandr Kostyshen,knees 082,"2:12:22,347","2:12:22,347",,
Aleksandr Kostyshen,knees 083,"2:12:22,867","2:12:22,867",,
Aleksandr Kostyshen,knees 084,"2:12:23,547","2:12:23,547",,
Aleksandr Kostyshen,knees 085,"2:12:24,167","2:12:24,167",,
Aleksandr Kostyshen,knees 086,"2:12:24,817","2:12:24,817",,
Aleksandr Kostyshen,knees 087,"2:12:25,427","2:12:25,427",,
Aleksandr Kostyshen,knees 088,"2:12:25,987","2:12:25,987",,
Aleksandr Kostyshen,ankles 001,"2:10:24,798","2:10:24,798",,
Aleksandr Kostyshen,ankles 002,"2:10:25,510","2:10:25,510",,
Aleksandr Kostyshen,ankles 003,"2:10:26,406","2:10:26,406",,
Aleksandr Kostyshen,ankles 004,"2:10:27,342","2:10:27,342",,
Aleksandr Kostyshen,ankles 005,"2:10:28,222","2:10:28,222",,
Aleksandr Kostyshen,ankles 006,"2:10:29,126","2:10:29,126",,
Aleksandr Kostyshen,ankles 007,"2:10:30,110","2:10:30,110",,
Aleksandr Kostyshen,ankles 008,"2:10:31,102","2:10:31,102",,
Aleksandr Kostyshen,ankles 009,"2:10:32,382","2:10:32,382",,
Aleksandr Kostyshen,ankles 010,"2:10:33,574","2:10:33,574",,
Aleksandr Kostyshen,ankles 011,"2:10:34,790","2:10:34,790",,
Aleksandr Kostyshen,ankles 012,"2:10:35,942","2:10:35,942",,
Aleksandr Kostyshen,ankles 013,"2:10:37,518","2:10:37,518",,
Aleksandr Kostyshen,ankles 014,"2:11:42,597","2:11:42,597",,
Aleksandr Kostyshen,ankles 015,"2:11:43,501","2:11:43,501",,
Aleksandr Kostyshen,ankles 016,"2:11:44,277","2:11:44,277",,
Aleksandr Kostyshen,ankles 017,"2:11:45,077","2:11:45,077",,
Aleksandr Kostyshen,ankles 018,"2:11:45,613","2:11:45,613",,
Aleksandr Kostyshen,ankles 019,"2:11:46,109","2:11:46,109",,
Aleksandr Kostyshen,ankles 020,"2:11:46,629","2:11:46,629",,
Aleksandr Kostyshen,ankles 021,"2:11:47,165","2:11:47,165",,
Aleksandr Kostyshen,ankles 022,"2:11:47,693","2:11:47,693",,
Aleksandr Kostyshen,ankles 023,"2:11:48,365","2:11:48,365",,
Aleksandr Kostyshen,ankles 024,"2:11:49,045","2:11:49,045",,
Aleksandr Kostyshen,ankles 025,"2:11:49,597","2:11:49,597",,
Aleksandr Kostyshen,ankles 026,"2:11:50,197","2:11:50,197",,
Aleksandr Kostyshen,ankles 027,"2:11:50,813","2:11:50,813",,
Aleksandr Kostyshen,ankles 028,"2:11:51,389","2:11:51,389",,
Aleksandr Kostyshen,ankles 029,"2:11:51,933","2:11:51,933",,
Aleksandr Kostyshen,ankles 030,"2:11:52,405","2:11:52,405",,
Aleksandr Kostyshen,ankles 031,"2:11:52,997","2:11:52,997",,
Aleksandr Kostyshen,ankles 032,"2:11:53,597","2:11:53,597",,
Aleksandr Kostyshen,ankles 033,"2:11:54,101","2:11:54,101",,
Aleksandr Kostyshen,ankles 034,"2:11:54,557","2:11:54,557",,
Aleksandr Kostyshen,ankles 035,"2:11:55,165","2:11:55,165",,
Aleksandr Kostyshen,ankles 036,"2:11:55,757","2:11:55,757",,
Aleksandr Kostyshen,ankles 037,"2:11:56,389","2:11:56,389",,
Aleksandr Kostyshen,ankles 038,"2:11:56,909","2:11:56,909",,
Aleksandr Kostyshen,ankles 039,"2:11:57,413","2:11:57,413",,
Aleksandr Kostyshen,ankles 040,"2:11:58,013","2:11:58,013",,
Aleksandr Kostyshen,ankles 041,"2:11:58,613","2:11:58,613",,
Aleksandr Kostyshen,ankles 042,"2:11:59,213","2:11:59,213",,
Aleksandr Kostyshen,ankles 043,"2:11:59,773","2:11:59,773",,
Aleksandr Kostyshen,ankles 044,"2:12:00,277","2:12:00,277",,
Aleksandr Kostyshen,ankles 045,"2:12:00,773","2:12:00,773",,
Aleksandr Kostyshen,ankles 046,"2:12:01,293","2:12:01,293",,
Aleksandr Kostyshen,ankles 047,"2:12:01,893","2:12:01,893",,
Aleksandr Kostyshen,ankles 048,"2:12:02,309","2:12:02,309",,
Aleksandr Kostyshen,ankles 049,"2:12:02,925","2:12:02,925",,
Aleksandr Kostyshen,ankles 050,"2:12:03,437","2:12:03,437",,
Aleksandr Kostyshen,ankles 051,"2:12:04,053","2:12:04,053",,
Aleksandr Kostyshen,ankles 052,"2:12:04,645","2:12:04,645",,
Aleksandr Kostyshen,ankles 053,"2:12:05,213","2:12:05,213",,
Aleksandr Kostyshen,ankles 054,"2:12:05,741","2:12:05,741",,
Aleksandr Kostyshen,ankles 055,"2:12:06,253","2:12:06,253",,
Aleksandr Kostyshen,ankles 056,"2:12:06,789","2:12:06,789",,
Aleksandr Kostyshen,ankles 057,"2:12:07,461","2:12:07,461",,
Aleksandr Kostyshen,ankles 058,"2:12:07,949","2:12:07,949",,
Aleksandr Kostyshen,ankles 059,"2:12:08,605","2:12:08,605",,
Aleksandr Kostyshen,ankles 060,"2:12:09,157","2:12:09,157",,
Aleksandr Kostyshen,ankles 061,"2:12:09,700","2:12:09,700",,
Aleksandr Kostyshen,ankles 062,"2:12:10,253","2:12:10,253",,
Aleksandr Kostyshen,ankles 063,"2:12:10,781","2:12:10,781",,
Aleksandr Kostyshen,ankles 064,"2:12:11,261","2:12:11,261",,
Aleksandr Kostyshen,ankles 065,"2:12:11,797","2:12:11,797",,
Aleksandr Kostyshen,ankles 066,"2:12:12,381","2:12:12,381",,
Aleksandr Kostyshen,ankles 067,"2:12:13,005","2:12:13,005",,
Aleksandr Kostyshen,ankles 068,"2:12:13,541","2:12:13,541",,
Aleksandr Kostyshen,ankles 069,"2:12:14,037","2:12:14,037",,
Aleksandr Kostyshen,ankles 070,"2:12:14,517","2:12:14,517",,
Aleksandr Kostyshen,ankles 071,"2:12:15,069","2:12:15,069",,
Aleksandr Kostyshen,ankles 072,"2:12:15,701","2:12:15,701",,
Aleksandr Kostyshen,ankles 073,"2:12:16,229","2:12:16,229",,
Aleksandr Kostyshen,ankles 074,"2:12:16,805","2:12:16,805",,
Aleksandr Kostyshen,ankles 075,"2:12:17,437","2:12:17,437",,
Aleksandr Kostyshen,ankles 076,"2:12:18,101","2:12:18,101",,
Aleksandr Kostyshen,ankles 077,"2:12:18,661","2:12:18,661",,
Aleksandr Kostyshen,ankles 078,"2:12:19,173","2:12:19,173",,
Aleksandr Kostyshen,ankles 079,"2:12:19,661","2:12:19,661",,
Aleksandr Kostyshen,ankles 080,"2:12:20,237","2:12:20,237",,
Aleksandr Kostyshen,ankles 081,"2:12:20,797","2:12:20,797",,
Aleksandr Kostyshen,ankles 082,"2:12:21,341","2:12:21,341",,
Aleksandr Kostyshen,ankles 083,"2:12:21,885","2:12:21,885",,
Aleksandr Kostyshen,ankles 084,"2:12:22,469","2:12:22,469",,
Aleksandr Kostyshen,ankles 085,"2:12:23,037","2:12:23,037",,
Aleksandr Kostyshen,ankles 086,"2:12:23,541","2:12:23,541",,
Aleksandr Kostyshen,ankles 087,"2:12:24,093","2:12:24,093",,
Aleksandr Kostyshen,ankles 088,"2:12:24,733","2:12:24,733",,
Aleksandr Kostyshen,ankles 089,"2:12:25,325","2:12:25,325",,
Aleksandr Kostyshen,ankles 090,"2:12:26,117","2:12:26,117",,
Aleksandr Kostyshen,desc 001,"2:10:21,234","2:11:40,233",,
Aleksandr Kostyshen,asc 001,"2:11:42,676","2:12:30,468",,
Aleksandr Kostyshen,virage 001,"2:11:40,596","2:11:42,236",,
Aleksandr Kostyshen,arms_up 001,"2:10:24,274","2:10:24,274",,
Aleksandr Kostyshen,arms_up 002,"2:11:44,234","2:11:44,234",,
Aleksandr Kostyshen,arms_down 001,"2:10:39,167","2:10:39,167",,
Aleksandr Kostyshen,dp1 001,"2:10:19,747","2:10:19,747",,
Aleksandr Kostyshen,dp1 002,"2:10:21,767","2:10:21,767",,
Aleksandr Kostyshen,dp1 003,"2:10:22,127","2:10:22,127",,
Aleksandr Kostyshen,dp1 004,"2:10:22,457","2:10:22,457",,
Aleksandr Kostyshen,dp1 005,"2:10:22,757","2:10:22,757",,
Aleksandr Kostyshen,dp1 006,"2:10:23,107","2:10:23,107",,
Aleksandr Kostyshen,dp1 007,"2:10:23,447","2:10:23,447",,
Aleksandr Kostyshen,dp1 008,"2:10:23,797","2:10:23,797",,
Aleksandr Kostyshen,dp1 009,"2:10:24,127","2:10:24,127",,
Aleksandr Kostyshen,dp1 010,"2:10:24,437","2:10:24,437",,
Aleksandr Kostyshen,dp1 011,"2:10:24,777","2:10:24,777",,
Aleksandr Kostyshen,dp1 012,"2:10:29,769","2:10:29,769",,
Aleksandr Kostyshen,dp1 013,"2:10:30,404","2:10:30,404",,
Aleksandr Kostyshen,dp1 014,"2:10:30,800","2:10:30,800",,
Aleksandr Kostyshen,dp1 015,"2:10:31,462","2:10:31,462",,
Aleksandr Kostyshen,dp1 016,"2:10:32,198","2:10:32,198",,
Aleksandr Kostyshen,dp1 017,"2:10:32,962","2:10:32,962",,
Aleksandr Kostyshen,dp1 018,"2:10:33,642","2:10:33,642",,
Aleksandr Kostyshen,dp1 019,"2:10:34,369","2:10:34,369",,
Aleksandr Kostyshen,dp1 020,"2:10:35,151","2:10:35,151",,
Aleksandr Kostyshen,dp1 021,"2:10:36,384","2:10:36,384",,
Aleksandr Kostyshen,dp1 022,"2:10:37,295","2:10:37,295",,
Aleksandr Kostyshen,dp1 023,"2:10:38,012","2:10:38,012",,
Aleksandr Kostyshen,dp1 024,"2:10:39,135","2:10:39,135",,
Aleksandr Kostyshen,dp1 025,"2:10:40,211","2:10:40,211",,
Aleksandr Kostyshen,dp1 026,"2:10:41,278","2:10:41,278",,
Aleksandr Kostyshen,dp1 027,"2:10:42,842","2:10:42,842",,
Aleksandr Kostyshen,dp1 028,"2:10:43,827","2:10:43,827",,
Aleksandr Kostyshen,dp1 029,"2:10:44,590","2:10:44,590",,
Aleksandr Kostyshen,dp1 030,"2:10:46,486","2:10:46,486",,
Aleksandr Kostyshen,dp1 031,"2:10:47,176","2:10:47,176",,
Aleksandr Kostyshen,dp1 032,"2:10:47,875","2:10:47,875",,
Aleksandr Kostyshen,dp1 033,"2:10:50,092","2:10:50,092",,
Aleksandr Kostyshen,dp1 034,"2:10:50,819","2:10:50,819",,
Aleksandr Kostyshen,dp1 035,"2:10:52,613","2:10:52,613",,
Aleksandr Kostyshen,dp1 036,"2:10:53,680","2:10:53,680",,
Aleksandr Kostyshen,dp1 037,"2:10:54,526","2:10:54,526",,
Aleksandr Kostyshen,dp1 038,"2:10:56,228","2:10:56,228",,
Aleksandr Kostyshen,dp1 039,"2:10:56,918","2:10:56,918",,
Aleksandr Kostyshen,dp1 040,"2:10:58,041","2:10:58,041",,
Aleksandr Kostyshen,dp1 041,"2:10:59,872","2:10:59,872",,
Aleksandr Kostyshen,dp1 042,"2:11:00,598","2:11:00,598",,
Aleksandr Kostyshen,dp1 043,"2:11:02,770","2:11:02,770",,
Aleksandr Kostyshen,dp1 044,"2:11:03,469","2:11:03,469",,
Aleksandr Kostyshen,dp1 045,"2:11:04,214","2:11:04,214",,
Aleksandr Kostyshen,dp1 046,"2:11:06,381","2:11:06,381",,
Aleksandr Kostyshen,dp1 047,"2:11:06,694","2:11:06,694",,
Aleksandr Kostyshen,dp1 048,"2:11:07,835","2:11:07,835",,
Aleksandr Kostyshen,dp1 049,"2:11:09,675","2:11:09,675",,
Aleksandr Kostyshen,dp1 050,"2:11:10,770","2:11:10,770",,
Aleksandr Kostyshen,dp1 051,"2:11:11,837","2:11:11,837",,
Aleksandr Kostyshen,dp1 052,"2:11:12,978","2:11:12,978",,
Aleksandr Kostyshen,dp1 053,"2:11:14,367","2:11:14,367",,
Aleksandr Kostyshen,dp1 054,"2:11:15,894","2:11:15,894",,
Aleksandr Kostyshen,dp1 055,"2:11:16,925","2:11:16,925",,
Aleksandr Kostyshen,dp1 056,"2:11:18,397","2:11:18,397",,
Aleksandr Kostyshen,dp1 057,"2:11:19,142","2:11:19,142",,
Aleksandr Kostyshen,dp1 058,"2:11:20,191","2:11:20,191",,
Aleksandr Kostyshen,dp1 059,"2:11:21,258","2:11:21,258",,
Aleksandr Kostyshen,dp1 060,"2:11:22,408","2:11:22,408",,
Aleksandr Kostyshen,dp1 061,"2:11:23,328","2:11:23,328",,
Aleksandr Kostyshen,dp1 062,"2:11:24,551","2:11:24,551",,
Aleksandr Kostyshen,dp1 063,"2:11:26,180","2:11:26,180",,
Aleksandr Kostyshen,dp1 064,"2:11:27,781","2:11:27,781",,
Aleksandr Kostyshen,dp1 065,"2:11:30,366","2:11:30,366",,
Aleksandr Kostyshen,dp1 066,"2:11:31,083","2:11:31,083",,
Aleksandr Kostyshen,dp1 067,"2:11:32,979","2:11:32,979",,
Aleksandr Kostyshen,dp1 068,"2:11:33,669","2:11:33,669",,
Aleksandr Kostyshen,dp1 069,"2:11:34,773","2:11:34,773",,
Aleksandr Kostyshen,dp1 070,"2:11:35,877","2:11:35,877",,
Aleksandr Kostyshen,dp1 071,"2:11:36,548","2:11:36,548",,
Aleksandr Kostyshen,dp1 072,"2:11:37,965","2:11:37,965",,
Aleksandr Kostyshen,dp1 073,"2:11:39,069","2:11:39,069",,
Aleksandr Kostyshen,dp1 074,"2:11:39,851","2:11:39,851",,
Aleksandr Kostyshen,dm1 001,"2:11:43,862","2:11:43,862",,
Aleksandr Kostyshen,dm1 002,"2:11:44,883","2:11:44,883",,
Aleksandr Kostyshen,dm1 003,"2:11:45,675","2:11:45,675",,
Aleksandr Kostyshen,dm1 004,"2:11:46,383","2:11:46,383",,
Aleksandr Kostyshen,dm1 005,"2:11:47,110","2:11:47,110",,
Aleksandr Kostyshen,dm1 006,"2:11:47,551","2:11:47,551",,
Aleksandr Kostyshen,dm1 007,"2:11:48,223","2:11:48,223",,
Aleksandr Kostyshen,dm1 008,"2:11:48,950","2:11:48,950",,
Aleksandr Kostyshen,dm1 009,"2:11:49,345","2:11:49,345",,
Aleksandr Kostyshen,dm1 010,"2:11:50,008","2:11:50,008",,
Aleksandr Kostyshen,dm1 011,"2:11:50,735","2:11:50,735",,
Aleksandr Kostyshen,dm1 012,"2:11:51,121","2:11:51,121",,
Aleksandr Kostyshen,dm1 013,"2:11:51,857","2:11:51,857",,
Aleksandr Kostyshen,dm1 014,"2:11:52,565","2:11:52,565",,
Aleksandr Kostyshen,dm1 015,"2:11:52,979","2:11:52,979",,
Aleksandr Kostyshen,dm1 016,"2:11:53,679","2:11:53,679",,
Aleksandr Kostyshen,dm1 017,"2:11:54,332","2:11:54,332",,
Aleksandr Kostyshen,dm1 018,"2:11:54,737","2:11:54,737",,
Aleksandr Kostyshen,dm1 019,"2:11:55,454","2:11:55,454",,
Aleksandr Kostyshen,dm1 020,"2:11:56,199","2:11:56,199",,
Aleksandr Kostyshen,dm1 021,"2:11:56,862","2:11:56,862",,
Aleksandr Kostyshen,dm1 022,"2:11:57,276","2:11:57,276",,
Aleksandr Kostyshen,dm1 023,"2:11:57,993","2:11:57,993",,
Aleksandr Kostyshen,dm1 024,"2:11:58,720","2:11:58,720",,
Aleksandr Kostyshen,dm1 025,"2:11:59,567","2:11:59,567",,
Aleksandr Kostyshen,dm1 026,"2:12:00,165","2:12:00,165",,
Aleksandr Kostyshen,dm1 027,"2:12:00,560","2:12:00,560",,
Aleksandr Kostyshen,dm1 028,"2:12:01,269","2:12:01,269",,
Aleksandr Kostyshen,dm1 029,"2:12:01,940","2:12:01,940",,
Aleksandr Kostyshen,dm1 030,"2:12:02,363","2:12:02,363",,
Aleksandr Kostyshen,dm1 031,"2:12:03,044","2:12:03,044",,
Aleksandr Kostyshen,dm1 032,"2:12:03,550","2:12:03,550",,
Aleksandr Kostyshen,dm1 033,"2:12:04,535","2:12:04,535",,
Aleksandr Kostyshen,dm1 034,"2:12:05,298","2:12:05,298",,
Aleksandr Kostyshen,dm1 035,"2:12:05,685","2:12:05,685",,
Aleksandr Kostyshen,dm1 036,"2:12:06,338","2:12:06,338",,
Aleksandr Kostyshen,dm1 037,"2:12:07,405","2:12:07,405",,
Aleksandr Kostyshen,dm1 038,"2:12:07,847","2:12:07,847",,
Aleksandr Kostyshen,dm1 039,"2:12:08,472","2:12:08,472",,
Aleksandr Kostyshen,dm1 040,"2:12:09,622","2:12:09,622",,
Aleksandr Kostyshen,dm1 041,"2:12:10,340","2:12:10,340",,
Aleksandr Kostyshen,dm1 042,"2:12:10,781","2:12:10,781",,
Aleksandr Kostyshen,dm1 043,"2:12:11,407","2:12:11,407",,
Aleksandr Kostyshen,dm1 044,"2:12:11,849","2:12:11,849",,
Aleksandr Kostyshen,dm1 045,"2:12:12,539","2:12:12,539",,
Aleksandr Kostyshen,dm1 046,"2:12:13,183","2:12:13,183",,
Aleksandr Kostyshen,dm1 047,"2:12:13,965","2:12:13,965",,
Aleksandr Kostyshen,dm1 048,"2:12:14,719","2:12:14,719",,
Aleksandr Kostyshen,dm1 049,"2:12:15,078","2:12:15,078",,
Aleksandr Kostyshen,dm1 050,"2:12:15,805","2:12:15,805",,
Aleksandr Kostyshen,dm1 051,"2:12:16,219","2:12:16,219",,
Aleksandr Kostyshen,dm1 052,"2:12:17,387","2:12:17,387",,
Aleksandr Kostyshen,dm1 053,"2:12:18,325","2:12:18,325",,
Aleksandr Kostyshen,dm1 054,"2:12:18,767","2:12:18,767",,
Aleksandr Kostyshen,dm1 055,"2:12:19,439","2:12:19,439",,
Aleksandr Kostyshen,dm1 056,"2:12:19,834","2:12:19,834",,
Aleksandr Kostyshen,dm1 057,"2:12:20,533","2:12:20,533",,
Aleksandr Kostyshen,dm1 058,"2:12:21,269","2:12:21,269",,
Aleksandr Kostyshen,dm1 059,"2:12:21,656","2:12:21,656",,
Aleksandr Kostyshen,dm1 060,"2:12:22,355","2:12:22,355",,
Aleksandr Kostyshen,dm1 061,"2:12:22,760","2:12:22,760",,
Aleksandr Kostyshen,dm1 062,"2:12:23,395","2:12:23,395",,
Aleksandr Kostyshen,dm1 063,"2:12:23,965","2:12:23,965",,
Aleksandr Kostyshen,dm1 064,"2:12:24,876","2:12:24,876",,
