Athlete,Name,Start,Stop,Depth_1,Depth_2,Day
Mirela Kardasevic,prop_b 001,"1:20:17,230","1:20:17,230",,,1
Mirela Kardasevic,prop_b 002,"1:20:19,220","1:20:19,220",,,1
Mirela Kardasevic,prop_b 003,"1:20:21,470","1:20:21,470",,,1
Mirela Kardasevic,prop_b 004,"1:20:24,100","1:20:24,100",,,1
Mirela Kardasevic,prop_b 005,"1:20:27,420","1:20:27,420",,,1
Mirela Kardasevic,prop_b 006,"1:20:31,430","1:20:31,430",,,1
Mirela Kardasevic,prop_b 007,"1:20:35,280","1:20:35,280",,,1
Mirela Kardasevic,prop_b 008,"1:20:39,180","1:20:39,180",,,1
Mirela Kardasevic,prop_b 009,"1:20:43,740","1:20:43,740",,,1
Mirela Kardasevic,prop_b 010,"1:21:47,250","1:21:47,250",,,1
Mirela Kardasevic,prop_b 011,"1:21:49,860","1:21:49,860",,,1
Mirela Kardasevic,prop_b 012,"1:21:52,380","1:21:52,380",,,1
Mirela Kardasevic,prop_b 013,"1:21:55,240","1:21:55,240",,,1
Mirela Kardasevic,prop_b 014,"1:21:58,110","1:21:58,110",,,1
Mirela Kardasevic,prop_b 015,"1:22:00,910","1:22:00,910",,,1
Mirela Kardasevic,prop_b 016,"1:22:04,130","1:22:04,130",,,1
Mirela Kardasevic,prop_b 017,"1:22:06,520","1:22:06,520",,,1
Mirela Kardasevic,prop_b 018,"1:22:09,190","1:22:09,190",,,1
Mirela Kardasevic,prop_b 019,"1:22:12,040","1:22:12,040",,,1
Mirela Kardasevic,prop_b 020,"1:22:14,750","1:22:14,750",,,1
Mirela Kardasevic,prop_b 021,"1:22:17,430","1:22:17,430",,,1
Mirela Kardasevic,prop_b 022,"1:22:20,200","1:22:20,200",,,1
Mirela Kardasevic,prop_b 023,"1:22:23,100","1:22:23,100",,,1
Mirela Kardasevic,prop_b 024,"1:22:25,940","1:22:25,940",,,1
Mirela Kardasevic,prop_b 025,"1:22:28,560","1:22:28,560",,,1
Mirela Kardasevic,prop_b 026,"1:22:31,560","1:22:31,560",,,1
Mirela Kardasevic,prop_b 027,"1:22:34,310","1:22:34,310",,,1
Mirela Kardasevic,prop_b 028,"1:22:37,180","1:22:37,180",,,1
Mirela Kardasevic,prop_b 029,"1:22:40,090","1:22:40,090",,,1
Mirela Kardasevic,prop_b 030,"1:22:43,130","1:22:43,130",,,1
Mirela Kardasevic,prop_b 031,"1:22:46,490","1:22:46,490",,,1
Mirela Kardasevic,prop_b 032,"1:22:49,770","1:22:49,770",,,1
Mirela Kardasevic,prop_j 001,"1:20:16,910","1:20:16,910",,,1
Mirela Kardasevic,prop_j 002,"1:20:18,880","1:20:18,880",,,1
Mirela Kardasevic,prop_j 003,"1:20:21,010","1:20:21,010",,,1
Mirela Kardasevic,prop_j 004,"1:20:23,620","1:20:23,620",,,1
Mirela Kardasevic,prop_j 005,"1:20:26,910","1:20:26,910",,,1
Mirela Kardasevic,prop_j 006,"1:20:30,820","1:20:30,820",,,1
Mirela Kardasevic,prop_j 007,"1:20:34,690","1:20:34,690",,,1
Mirela Kardasevic,prop_j 008,"1:20:38,890","1:20:38,890",,,1
Mirela Kardasevic,prop_j 009,"1:20:43,260","1:20:43,260",,,1
Mirela Kardasevic,prop_j 010,"1:20:48,400","1:20:48,400",,,1
Mirela Kardasevic,prop_j 011,"1:20:54,940","1:20:54,940",,,1
Mirela Kardasevic,prop_j 012,"1:21:03,670","1:21:03,670",,,1
Mirela Kardasevic,prop_j 013,"1:21:43,660","1:21:43,660",,,1
Mirela Kardasevic,prop_j 014,"1:21:45,650","1:21:45,650",,,1
Mirela Kardasevic,prop_j 015,"1:21:47,190","1:21:47,190",,,1
Mirela Kardasevic,prop_j 016,"1:21:49,300","1:21:49,300",,,1
Mirela Kardasevic,prop_j 017,"1:21:52,080","1:21:52,080",,,1
Mirela Kardasevic,prop_j 018,"1:21:54,810","1:21:54,810",,,1
Mirela Kardasevic,prop_j 019,"1:21:57,580","1:21:57,580",,,1
Mirela Kardasevic,prop_j 020,"1:22:00,330","1:22:00,330",,,1
Mirela Kardasevic,prop_j 021,"1:22:03,440","1:22:03,440",,,1
Mirela Kardasevic,prop_j 022,"1:22:06,070","1:22:06,070",,,1
Mirela Kardasevic,prop_j 023,"1:22:08,790","1:22:08,790",,,1
Mirela Kardasevic,prop_j 024,"1:22:11,540","1:22:11,540",,,1
Mirela Kardasevic,prop_j 025,"1:22:14,310","1:22:14,310",,,1
Mirela Kardasevic,prop_j 026,"1:22:16,990","1:22:16,990",,,1
Mirela Kardasevic,prop_j 027,"1:22:19,760","1:22:19,760",,,1
Mirela Kardasevic,prop_j 028,"1:22:22,600","1:22:22,600",,,1
Mirela Kardasevic,prop_j 029,"1:22:25,280","1:22:25,280",,,1
Mirela Kardasevic,prop_j 030,"1:22:28,190","1:22:28,190",,,1
Mirela Kardasevic,prop_j 031,"1:22:31,130","1:22:31,130",,,1
Mirela Kardasevic,prop_j 032,"1:22:33,860","1:22:33,860",,,1
Mirela Kardasevic,prop_j 033,"1:22:36,850","1:22:36,850",,,1
Mirela Kardasevic,prop_j 034,"1:22:39,690","1:22:39,690",,,1
Mirela Kardasevic,prop_j 035,"1:22:42,650","1:22:42,650",,,1
Mirela Kardasevic,prop_j 036,"1:22:45,930","1:22:45,930",,,1
Mirela Kardasevic,prop_j 037,"1:22:49,690","1:22:49,690",,,1
Mirela Kardasevic,tag 001,"1:21:40,700","1:21:40,700",,,1
Mirela Kardasevic,desc 001,"1:20:14,480","1:21:39,033",,,1
Mirela Kardasevic,asc 001,"1:21:42,366","1:22:55,620",,,1
Mirela Kardasevic,virage 001,"1:21:39,033","1:21:42,366",,,1
Mirela Kardasevic,dp1 001,"1:20:14,180","1:20:14,180",,,1
Mirela Kardasevic,dp1 002,"1:20:15,350","1:20:15,350",,,1
Mirela Kardasevic,dp1 003,"1:20:16,200","1:20:16,200",,,1
Mirela Kardasevic,dp1 004,"1:20:16,770","1:20:16,770",,,1
Mirela Kardasevic,dp1 005,"1:20:17,300","1:20:17,300",,,1
Mirela Kardasevic,dp1 006,"1:20:17,840","1:20:17,840",,,1
Mirela Kardasevic,dp1 007,"1:20:18,350","1:20:18,350",,,1
Mirela Kardasevic,dp1 008,"1:20:18,880","1:20:18,880",,,1
Mirela Kardasevic,dp1 009,"1:20:19,320","1:20:19,320",,,1
Mirela Kardasevic,dp1 010,"1:20:19,810","1:20:19,810",,,1
Mirela Kardasevic,dp1 011,"1:20:20,840","1:20:20,840",,,1
Mirela Kardasevic,dp1 012,"1:20:29,140","1:20:29,140",,,1
Mirela Kardasevic,dp1 013,"1:20:29,850","1:20:29,850",,,1
Mirela Kardasevic,dp1 014,"1:20:31,250","1:20:31,250",,,1
Mirela Kardasevic,dp1 015,"1:20:32,180","1:20:32,180",,,1
Mirela Kardasevic,dp1 016,"1:20:32,670","1:20:32,670",,,1
Mirela Kardasevic,dp1 017,"1:20:33,860","1:20:33,860",,,1
Mirela Kardasevic,dp1 018,"1:20:34,550","1:20:34,550",,,1
Mirela Kardasevic,dp1 019,"1:20:35,260","1:20:35,260",,,1
Mirela Kardasevic,dp1 020,"1:20:35,960","1:20:35,960",,,1
Mirela Kardasevic,dp1 021,"1:20:36,710","1:20:36,710",,,1
Mirela Kardasevic,dp1 022,"1:20:37,480","1:20:37,480",,,1
Mirela Kardasevic,dp1 023,"1:20:38,160","1:20:38,160",,,1
Mirela Kardasevic,dp1 024,"1:20:39,210","1:20:39,210",,,1
Mirela Kardasevic,dp1 025,"1:20:40,340","1:20:40,340",,,1
Mirela Kardasevic,dp1 026,"1:20:42,120","1:20:42,120",,,1
Mirela Kardasevic,dp1 027,"1:20:43,640","1:20:43,640",,,1
Mirela Kardasevic,dp1 028,"1:20:44,650","1:20:44,650",,,1
Mirela Kardasevic,dp1 029,"1:20:46,160","1:20:46,160",,,1
Mirela Kardasevic,dp1 030,"1:20:46,930","1:20:46,930",,,1
Mirela Kardasevic,dp1 031,"1:20:47,740","1:20:47,740",,,1
Mirela Kardasevic,dp1 032,"1:20:49,440","1:20:49,440",,,1
Mirela Kardasevic,dp1 033,"1:20:50,140","1:20:50,140",,,1
Mirela Kardasevic,dp1 034,"1:20:51,970","1:20:51,970",,,1
Mirela Kardasevic,dp1 035,"1:20:53,040","1:20:53,040",,,1
Mirela Kardasevic,dp1 036,"1:20:54,830","1:20:54,830",,,1
Mirela Kardasevic,dp1 037,"1:20:55,870","1:20:55,870",,,1
Mirela Kardasevic,dp1 038,"1:20:58,130","1:20:58,130",,,1
Mirela Kardasevic,dp1 039,"1:20:59,950","1:20:59,950",,,1
Mirela Kardasevic,dp1 040,"1:21:01,130","1:21:01,130",,,1
Mirela Kardasevic,dp1 041,"1:21:02,160","1:21:02,160",,,1
Mirela Kardasevic,dp1 042,"1:21:03,650","1:21:03,650",,,1
Mirela Kardasevic,dp1 043,"1:21:06,120","1:21:06,120",,,1
Mirela Kardasevic,dp1 044,"1:21:07,660","1:21:07,660",,,1
Mirela Kardasevic,dp1 045,"1:21:08,690","1:21:08,690",,,1
Mirela Kardasevic,dp1 046,"1:21:10,530","1:21:10,530",,,1
Mirela Kardasevic,dp1 047,"1:21:11,610","1:21:11,610",,,1
Mirela Kardasevic,dp1 048,"1:21:13,410","1:21:13,410",,,1
Mirela Kardasevic,dp1 049,"1:21:14,450","1:21:14,450",,,1
Mirela Kardasevic,dp1 050,"1:21:15,720","1:21:15,720",,,1
Mirela Kardasevic,dp1 051,"1:21:17,340","1:21:17,340",,,1
Mirela Kardasevic,dp1 052,"1:21:18,830","1:21:18,830",,,1
Mirela Kardasevic,dp1 053,"1:21:21,050","1:21:21,050",,,1
Mirela Kardasevic,dp1 054,"1:21:22,160","1:21:22,160",,,1
Mirela Kardasevic,dp1 055,"1:21:23,970","1:21:23,970",,,1
Mirela Kardasevic,dp1 056,"1:21:25,400","1:21:25,400",,,1
Mirela Kardasevic,dp1 057,"1:21:27,240","1:21:27,240",,,1
Mirela Kardasevic,dp1 058,"1:21:28,360","1:21:28,360",,,1
Mirela Kardasevic,dp1 059,"1:21:30,500","1:21:30,500",,,1
Mirela Kardasevic,dp1 060,"1:21:31,330","1:21:31,330",,,1
Mirela Kardasevic,dp1 061,"1:21:32,020","1:21:32,020",,,1
Mirela Kardasevic,dp1 062,"1:21:33,430","1:21:33,430",,,1
Mirela Kardasevic,dp1 063,"1:21:34,470","1:21:34,470",,,1
Mirela Kardasevic,dp1 064,"1:21:35,810","1:21:35,810",,,1
Mirela Kardasevic,dp1 065,"1:21:37,020","1:21:37,020",,,1
Mirela Kardasevic,dp1 066,"1:21:38,520","1:21:38,520",,,1
Mirela Kardasevic,dm1 001,"1:21:43,580","1:21:43,580",,,1
Mirela Kardasevic,dm1 002,"1:21:44,310","1:21:44,310",,,1
Mirela Kardasevic,dm1 003,"1:21:45,020","1:21:45,020",,,1
Mirela Kardasevic,dm1 004,"1:21:46,480","1:21:46,480",,,1
Mirela Kardasevic,dm1 005,"1:21:47,530","1:21:47,530",,,1
Mirela Kardasevic,dm1 006,"1:21:49,780","1:21:49,780",,,1
Mirela Kardasevic,dm1 007,"1:21:50,830","1:21:50,830",,,1
Mirela Kardasevic,dm1 008,"1:21:52,250","1:21:52,250",,,1
Mirela Kardasevic,dm1 009,"1:21:53,080","1:21:53,080",,,1
Mirela Kardasevic,dm1 010,"1:21:54,420","1:21:54,420",,,1
Mirela Kardasevic,dm1 011,"1:21:55,540","1:21:55,540",,,1
Mirela Kardasevic,dm1 012,"1:21:56,340","1:21:56,340",,,1
Mirela Kardasevic,dm1 013,"1:21:58,150","1:21:58,150",,,1
Mirela Kardasevic,dm1 014,"1:21:58,820","1:21:58,820",,,1
Mirela Kardasevic,dm1 015,"1:21:59,370","1:21:59,370",,,1
Mirela Kardasevic,dm1 016,"1:22:01,130","1:22:01,130",,,1
Mirela Kardasevic,dm1 017,"1:22:01,840","1:22:01,840",,,1
Mirela Kardasevic,dm1 018,"1:22:02,510","1:22:02,510",,,1
Mirela Kardasevic,dm1 019,"1:22:04,310","1:22:04,310",,,1
Mirela Kardasevic,dm1 020,"1:22:05,050","1:22:05,050",,,1
Mirela Kardasevic,dm1 021,"1:22:06,850","1:22:06,850",,,1
Mirela Kardasevic,dm1 022,"1:22:07,910","1:22:07,910",,,1
Mirela Kardasevic,dm1 023,"1:22:09,080","1:22:09,080",,,1
Mirela Kardasevic,dm1 024,"1:22:10,120","1:22:10,120",,,1
Mirela Kardasevic,dm1 025,"1:22:11,490","1:22:11,490",,,1
Mirela Kardasevic,dm1 026,"1:22:12,640","1:22:12,640",,,1
Mirela Kardasevic,dm1 027,"1:22:13,430","1:22:13,430",,,1
Mirela Kardasevic,dm1 028,"1:22:14,500","1:22:14,500",,,1
Mirela Kardasevic,dm1 029,"1:22:15,270","1:22:15,270",,,1
Mirela Kardasevic,dm1 030,"1:22:16,240","1:22:16,240",,,1
Mirela Kardasevic,dm1 031,"1:22:17,310","1:22:17,310",,,1
Mirela Kardasevic,dm1 032,"1:22:18,320","1:22:18,320",,,1
Mirela Kardasevic,dm1 033,"1:22:19,900","1:22:19,900",,,1
Mirela Kardasevic,dm1 034,"1:22:21,310","1:22:21,310",,,1
Mirela Kardasevic,dm1 035,"1:22:22,220","1:22:22,220",,,1
Mirela Kardasevic,dm1 036,"1:22:23,580","1:22:23,580",,,1
Mirela Kardasevic,dm1 037,"1:22:24,630","1:22:24,630",,,1
Mirela Kardasevic,dm1 038,"1:22:25,760","1:22:25,760",,,1
Mirela Kardasevic,dm1 039,"1:22:26,830","1:22:26,830",,,1
Mirela Kardasevic,dm1 040,"1:22:27,760","1:22:27,760",,,1
Mirela Kardasevic,dm1 041,"1:22:29,020","1:22:29,020",,,1
Mirela Kardasevic,dm1 042,"1:22:30,440","1:22:30,440",,,1
Mirela Kardasevic,dm1 043,"1:22:31,530","1:22:31,530",,,1
Mirela Kardasevic,dm1 044,"1:22:32,320","1:22:32,320",,,1
Mirela Kardasevic,dm1 045,"1:22:33,320","1:22:33,320",,,1
Mirela Kardasevic,dm1 046,"1:22:34,850","1:22:34,850",,,1
Mirela Kardasevic,dm1 047,"1:22:35,920","1:22:35,920",,,1
Mirela Kardasevic,dm1 048,"1:22:36,990","1:22:36,990",,,1
Mirela Kardasevic,dm1 049,"1:22:37,740","1:22:37,740",,,1
Mirela Kardasevic,dm1 050,"1:22:39,240","1:22:39,240",,,1
Mirela Kardasevic,dm1 051,"1:22:40,230","1:22:40,230",,,1
Mirela Kardasevic,dm1 052,"1:22:41,340","1:22:41,340",,,1
Mirela Kardasevic,dm1 053,"1:22:42,490","1:22:42,490",,,1
Mirela Kardasevic,dm1 054,"1:22:43,790","1:22:43,790",,,1
Mirela Kardasevic,dm1 055,"1:22:44,940","1:22:44,940",,,1
Mirela Kardasevic,dm1 056,"1:22:46,110","1:22:46,110",,,1
