﻿Athlete,Name,Start,Stop,Depth_1,Depth_2
Andrey Matveenko,hips 001,"2:30:12,813","2:30:12,813",,
Andrey Matveenko,hips 002,"2:30:13,393","2:30:13,393",,
Andrey Matveenko,hips 003,"2:30:14,263","2:30:14,263",,
Andrey Matveenko,hips 004,"2:30:15,243","2:30:15,243",,
Andrey Matveenko,hips 005,"2:30:16,093","2:30:16,093",,
Andrey Matveenko,hips 006,"2:30:16,903","2:30:16,903",,
Andrey Matveenko,hips 007,"2:30:17,763","2:30:17,763",,
Andrey Matveenko,hips 008,"2:30:18,433","2:30:18,433",,
Andrey Matveenko,hips 009,"2:30:19,123","2:30:19,123",,
Andrey Matveenko,hips 010,"2:30:19,783","2:30:19,783",,
Andrey Matveenko,hips 011,"2:30:20,473","2:30:20,473",,
Andrey Matveenko,hips 012,"2:30:21,173","2:30:21,173",,
Andrey Matveenko,hips 013,"2:30:21,823","2:30:21,823",,
Andrey Matveenko,hips 014,"2:30:22,913","2:30:22,913",,
Andrey Matveenko,hips 015,"2:30:23,823","2:30:23,823",,
Andrey Matveenko,hips 016,"2:30:24,573","2:30:24,573",,
Andrey Matveenko,hips 017,"2:30:25,533","2:30:25,533",,
Andrey Matveenko,hips 018,"2:30:26,703","2:30:26,703",,
Andrey Matveenko,hips 019,"2:30:27,653","2:30:27,653",,
Andrey Matveenko,hips 020,"2:30:28,643","2:30:28,643",,
Andrey Matveenko,hips 021,"2:30:31,553","2:30:31,553",,
Andrey Matveenko,hips 022,"2:30:33,773","2:30:33,773",,
Andrey Matveenko,hips 023,"2:30:36,663","2:30:36,663",,
Andrey Matveenko,hips 024,"2:30:41,643","2:30:41,643",,
Andrey Matveenko,hips 025,"2:30:43,633","2:30:43,633",,
Andrey Matveenko,hips 026,"2:31:38,833","2:31:38,833",,
Andrey Matveenko,hips 027,"2:31:39,443","2:31:39,443",,
Andrey Matveenko,hips 028,"2:31:40,313","2:31:40,313",,
Andrey Matveenko,hips 029,"2:31:41,063","2:31:41,063",,
Andrey Matveenko,hips 030,"2:31:41,793","2:31:41,793",,
Andrey Matveenko,hips 031,"2:31:42,463","2:31:42,463",,
Andrey Matveenko,hips 032,"2:31:42,963","2:31:42,963",,
Andrey Matveenko,hips 033,"2:31:43,653","2:31:43,653",,
Andrey Matveenko,hips 034,"2:31:44,303","2:31:44,303",,
Andrey Matveenko,hips 035,"2:31:45,433","2:31:45,433",,
Andrey Matveenko,hips 036,"2:31:46,023","2:31:46,023",,
Andrey Matveenko,hips 037,"2:31:46,783","2:31:46,783",,
Andrey Matveenko,hips 038,"2:31:47,653","2:31:47,653",,
Andrey Matveenko,hips 039,"2:31:48,543","2:31:48,543",,
Andrey Matveenko,hips 040,"2:31:49,273","2:31:49,273",,
Andrey Matveenko,hips 041,"2:31:50,303","2:31:50,303",,
Andrey Matveenko,hips 042,"2:31:51,023","2:31:51,023",,
Andrey Matveenko,hips 043,"2:31:51,963","2:31:51,963",,
Andrey Matveenko,hips 044,"2:31:52,723","2:31:52,723",,
Andrey Matveenko,hips 045,"2:31:53,453","2:31:53,453",,
Andrey Matveenko,hips 046,"2:31:54,303","2:31:54,303",,
Andrey Matveenko,hips 047,"2:31:55,023","2:31:55,023",,
Andrey Matveenko,hips 048,"2:31:55,853","2:31:55,853",,
Andrey Matveenko,hips 049,"2:31:56,503","2:31:56,503",,
Andrey Matveenko,hips 050,"2:31:57,263","2:31:57,263",,
Andrey Matveenko,hips 051,"2:31:57,933","2:31:57,933",,
Andrey Matveenko,hips 052,"2:31:58,623","2:31:58,623",,
Andrey Matveenko,hips 053,"2:31:59,263","2:31:59,263",,
Andrey Matveenko,hips 054,"2:32:00,213","2:32:00,213",,
Andrey Matveenko,hips 055,"2:32:01,083","2:32:01,083",,
Andrey Matveenko,hips 056,"2:32:01,913","2:32:01,913",,
Andrey Matveenko,hips 057,"2:32:02,963","2:32:02,963",,
Andrey Matveenko,hips 058,"2:32:03,783","2:32:03,783",,
Andrey Matveenko,hips 059,"2:32:04,513","2:32:04,513",,
Andrey Matveenko,hips 060,"2:32:05,443","2:32:05,443",,
Andrey Matveenko,hips 061,"2:32:06,293","2:32:06,293",,
Andrey Matveenko,hips 062,"2:32:07,103","2:32:07,103",,
Andrey Matveenko,hips 063,"2:32:08,273","2:32:08,273",,
Andrey Matveenko,hips 064,"2:32:09,243","2:32:09,243",,
Andrey Matveenko,hips 065,"2:32:10,153","2:32:10,153",,
Andrey Matveenko,hips 066,"2:32:11,353","2:32:11,353",,
Andrey Matveenko,hips 067,"2:32:12,313","2:32:12,313",,
Andrey Matveenko,hips 068,"2:32:13,353","2:32:13,353",,
Andrey Matveenko,hips 069,"2:32:14,423","2:32:14,423",,
Andrey Matveenko,hips 070,"2:32:15,503","2:32:15,503",,
Andrey Matveenko,hips 071,"2:32:16,633","2:32:16,633",,
Andrey Matveenko,hips 072,"2:32:17,723","2:32:17,723",,
Andrey Matveenko,hips 073,"2:32:18,793","2:32:18,793",,
Andrey Matveenko,hips 074,"2:32:19,913","2:32:19,913",,
Andrey Matveenko,hips 075,"2:32:20,913","2:32:20,913",,
Andrey Matveenko,hips 076,"2:32:21,983","2:32:21,983",,
Andrey Matveenko,hips 077,"2:32:23,083","2:32:23,083",,
Andrey Matveenko,hips 078,"2:32:24,253","2:32:24,253",,
Andrey Matveenko,hips 079,"2:32:25,263","2:32:25,263",,
Andrey Matveenko,hips 080,"2:32:26,313","2:32:26,313",,
Andrey Matveenko,hips 081,"2:32:27,443","2:32:27,443",,
Andrey Matveenko,hips 082,"2:32:28,653","2:32:28,653",,
Andrey Matveenko,hips 083,"2:32:29,703","2:32:29,703",,
Andrey Matveenko,hips 084,"2:32:30,753","2:32:30,753",,
Andrey Matveenko,hips 085,"2:32:31,873","2:32:31,873",,
Andrey Matveenko,hips 086,"2:32:33,043","2:32:33,043",,
Andrey Matveenko,hips 087,"2:32:34,133","2:32:34,133",,
Andrey Matveenko,hips 088,"2:32:35,163","2:32:35,163",,
Andrey Matveenko,hips 089,"2:32:36,313","2:32:36,313",,
Andrey Matveenko,hips 090,"2:32:37,543","2:32:37,543",,
Andrey Matveenko,hips 091,"2:32:38,883","2:32:38,883",,
Andrey Matveenko,hips 092,"2:32:40,093","2:32:40,093",,
Andrey Matveenko,knees 001,"2:30:12,463","2:30:12,463",,
Andrey Matveenko,knees 002,"2:30:13,373","2:30:13,373",,
Andrey Matveenko,knees 003,"2:30:14,283","2:30:14,283",,
Andrey Matveenko,knees 004,"2:30:15,163","2:30:15,163",,
Andrey Matveenko,knees 005,"2:30:16,173","2:30:16,173",,
Andrey Matveenko,knees 006,"2:30:16,773","2:30:16,773",,
Andrey Matveenko,knees 007,"2:30:17,483","2:30:17,483",,
Andrey Matveenko,knees 008,"2:30:18,253","2:30:18,253",,
Andrey Matveenko,knees 009,"2:30:18,943","2:30:18,943",,
Andrey Matveenko,knees 010,"2:30:19,703","2:30:19,703",,
Andrey Matveenko,knees 011,"2:30:20,413","2:30:20,413",,
Andrey Matveenko,knees 012,"2:30:21,063","2:30:21,063",,
Andrey Matveenko,knees 013,"2:30:21,913","2:30:21,913",,
Andrey Matveenko,knees 014,"2:30:22,883","2:30:22,883",,
Andrey Matveenko,knees 015,"2:30:23,773","2:30:23,773",,
Andrey Matveenko,knees 016,"2:30:24,473","2:30:24,473",,
Andrey Matveenko,knees 017,"2:30:25,473","2:30:25,473",,
Andrey Matveenko,knees 018,"2:30:26,443","2:30:26,443",,
Andrey Matveenko,knees 019,"2:30:27,513","2:30:27,513",,
Andrey Matveenko,knees 020,"2:30:28,653","2:30:28,653",,
Andrey Matveenko,knees 021,"2:30:31,193","2:30:31,193",,
Andrey Matveenko,knees 022,"2:30:33,263","2:30:33,263",,
Andrey Matveenko,knees 023,"2:30:36,463","2:30:36,463",,
Andrey Matveenko,knees 024,"2:30:41,693","2:30:41,693",,
Andrey Matveenko,knees 025,"2:30:43,483","2:30:43,483",,
Andrey Matveenko,knees 026,"2:31:37,993","2:31:37,993",,
Andrey Matveenko,knees 027,"2:31:38,773","2:31:38,773",,
Andrey Matveenko,knees 028,"2:31:39,523","2:31:39,523",,
Andrey Matveenko,knees 029,"2:31:40,393","2:31:40,393",,
Andrey Matveenko,knees 030,"2:31:41,083","2:31:41,083",,
Andrey Matveenko,knees 031,"2:31:41,743","2:31:41,743",,
Andrey Matveenko,knees 032,"2:31:42,393","2:31:42,393",,
Andrey Matveenko,knees 033,"2:31:43,013","2:31:43,013",,
Andrey Matveenko,knees 034,"2:31:43,753","2:31:43,753",,
Andrey Matveenko,knees 035,"2:31:44,313","2:31:44,313",,
Andrey Matveenko,knees 036,"2:31:44,903","2:31:44,903",,
Andrey Matveenko,knees 037,"2:31:45,533","2:31:45,533",,
Andrey Matveenko,knees 038,"2:31:46,173","2:31:46,173",,
Andrey Matveenko,knees 039,"2:31:46,763","2:31:46,763",,
Andrey Matveenko,knees 040,"2:31:47,493","2:31:47,493",,
Andrey Matveenko,knees 041,"2:31:48,483","2:31:48,483",,
Andrey Matveenko,knees 042,"2:31:49,293","2:31:49,293",,
Andrey Matveenko,knees 043,"2:31:50,113","2:31:50,113",,
Andrey Matveenko,knees 044,"2:31:50,843","2:31:50,843",,
Andrey Matveenko,knees 045,"2:31:51,793","2:31:51,793",,
Andrey Matveenko,knees 046,"2:31:52,553","2:31:52,553",,
Andrey Matveenko,knees 047,"2:31:53,263","2:31:53,263",,
Andrey Matveenko,knees 048,"2:31:54,273","2:31:54,273",,
Andrey Matveenko,knees 049,"2:31:54,963","2:31:54,963",,
Andrey Matveenko,knees 050,"2:31:55,683","2:31:55,683",,
Andrey Matveenko,knees 051,"2:31:56,533","2:31:56,533",,
Andrey Matveenko,knees 052,"2:31:57,183","2:31:57,183",,
Andrey Matveenko,knees 053,"2:31:57,743","2:31:57,743",,
Andrey Matveenko,knees 054,"2:31:58,493","2:31:58,493",,
Andrey Matveenko,knees 055,"2:31:59,333","2:31:59,333",,
Andrey Matveenko,knees 056,"2:32:00,113","2:32:00,113",,
Andrey Matveenko,knees 057,"2:32:00,863","2:32:00,863",,
Andrey Matveenko,knees 058,"2:32:01,723","2:32:01,723",,
Andrey Matveenko,knees 059,"2:32:02,443","2:32:02,443",,
Andrey Matveenko,knees 060,"2:32:03,513","2:32:03,513",,
Andrey Matveenko,knees 061,"2:32:04,393","2:32:04,393",,
Andrey Matveenko,knees 062,"2:32:05,353","2:32:05,353",,
Andrey Matveenko,knees 063,"2:32:06,173","2:32:06,173",,
Andrey Matveenko,knees 064,"2:32:07,073","2:32:07,073",,
Andrey Matveenko,knees 065,"2:32:08,153","2:32:08,153",,
Andrey Matveenko,knees 066,"2:32:09,063","2:32:09,063",,
Andrey Matveenko,knees 067,"2:32:10,133","2:32:10,133",,
Andrey Matveenko,knees 068,"2:32:11,443","2:32:11,443",,
Andrey Matveenko,knees 069,"2:32:12,403","2:32:12,403",,
Andrey Matveenko,knees 070,"2:32:13,313","2:32:13,313",,
Andrey Matveenko,knees 071,"2:32:14,283","2:32:14,283",,
Andrey Matveenko,knees 072,"2:32:15,333","2:32:15,333",,
Andrey Matveenko,knees 073,"2:32:16,523","2:32:16,523",,
Andrey Matveenko,knees 074,"2:32:17,413","2:32:17,413",,
Andrey Matveenko,knees 075,"2:32:18,363","2:32:18,363",,
Andrey Matveenko,knees 076,"2:32:19,623","2:32:19,623",,
Andrey Matveenko,knees 077,"2:32:20,853","2:32:20,853",,
Andrey Matveenko,knees 078,"2:32:21,823","2:32:21,823",,
Andrey Matveenko,knees 079,"2:32:23,083","2:32:23,083",,
Andrey Matveenko,knees 080,"2:32:24,023","2:32:24,023",,
Andrey Matveenko,knees 081,"2:32:25,113","2:32:25,113",,
Andrey Matveenko,knees 082,"2:32:26,183","2:32:26,183",,
Andrey Matveenko,knees 083,"2:32:27,383","2:32:27,383",,
Andrey Matveenko,knees 084,"2:32:28,393","2:32:28,393",,
Andrey Matveenko,knees 085,"2:32:29,483","2:32:29,483",,
Andrey Matveenko,knees 086,"2:32:30,433","2:32:30,433",,
Andrey Matveenko,knees 087,"2:32:31,753","2:32:31,753",,
Andrey Matveenko,knees 088,"2:32:32,843","2:32:32,843",,
Andrey Matveenko,knees 089,"2:32:33,713","2:32:33,713",,
Andrey Matveenko,knees 090,"2:32:34,803","2:32:34,803",,
Andrey Matveenko,knees 091,"2:32:35,953","2:32:35,953",,
Andrey Matveenko,knees 092,"2:32:37,333","2:32:37,333",,
Andrey Matveenko,knees 093,"2:32:38,773","2:32:38,773",,
Andrey Matveenko,knees 094,"2:32:40,123","2:32:40,123",,
Andrey Matveenko,ankles 001,"2:30:12,463","2:30:12,463",,
Andrey Matveenko,ankles 002,"2:30:13,103","2:30:13,103",,
Andrey Matveenko,ankles 003,"2:30:14,023","2:30:14,023",,
Andrey Matveenko,ankles 004,"2:30:15,073","2:30:15,073",,
Andrey Matveenko,ankles 005,"2:30:15,963","2:30:15,963",,
Andrey Matveenko,ankles 006,"2:30:16,593","2:30:16,593",,
Andrey Matveenko,ankles 007,"2:30:17,343","2:30:17,343",,
Andrey Matveenko,ankles 008,"2:30:18,033","2:30:18,033",,
Andrey Matveenko,ankles 009,"2:30:18,783","2:30:18,783",,
Andrey Matveenko,ankles 010,"2:30:19,593","2:30:19,593",,
Andrey Matveenko,ankles 011,"2:30:20,213","2:30:20,213",,
Andrey Matveenko,ankles 012,"2:30:20,983","2:30:20,983",,
Andrey Matveenko,ankles 013,"2:30:21,713","2:30:21,713",,
Andrey Matveenko,ankles 014,"2:30:22,473","2:30:22,473",,
Andrey Matveenko,ankles 015,"2:30:23,403","2:30:23,403",,
Andrey Matveenko,ankles 016,"2:30:24,153","2:30:24,153",,
Andrey Matveenko,ankles 017,"2:30:25,103","2:30:25,103",,
Andrey Matveenko,ankles 018,"2:30:26,043","2:30:26,043",,
Andrey Matveenko,ankles 019,"2:30:27,163","2:30:27,163",,
Andrey Matveenko,ankles 020,"2:30:28,203","2:30:28,203",,
Andrey Matveenko,ankles 021,"2:30:29,283","2:30:29,283",,
Andrey Matveenko,ankles 022,"2:30:31,543","2:30:31,543",,
Andrey Matveenko,ankles 023,"2:30:32,943","2:30:32,943",,
Andrey Matveenko,ankles 024,"2:30:36,413","2:30:36,413",,
Andrey Matveenko,ankles 025,"2:30:37,783","2:30:37,783",,
Andrey Matveenko,ankles 026,"2:30:41,363","2:30:41,363",,
Andrey Matveenko,ankles 027,"2:30:43,633","2:30:43,633",,
Andrey Matveenko,ankles 028,"2:31:38,233","2:31:38,233",,
Andrey Matveenko,ankles 029,"2:31:39,323","2:31:39,323",,
Andrey Matveenko,ankles 030,"2:31:40,083","2:31:40,083",,
Andrey Matveenko,ankles 031,"2:31:40,893","2:31:40,893",,
Andrey Matveenko,ankles 032,"2:31:41,553","2:31:41,553",,
Andrey Matveenko,ankles 033,"2:31:42,243","2:31:42,243",,
Andrey Matveenko,ankles 034,"2:31:42,953","2:31:42,953",,
Andrey Matveenko,ankles 035,"2:31:43,663","2:31:43,663",,
Andrey Matveenko,ankles 036,"2:31:44,323","2:31:44,323",,
Andrey Matveenko,ankles 037,"2:31:45,013","2:31:45,013",,
Andrey Matveenko,ankles 038,"2:31:45,553","2:31:45,553",,
Andrey Matveenko,ankles 039,"2:31:46,423","2:31:46,423",,
Andrey Matveenko,ankles 040,"2:31:47,253","2:31:47,253",,
Andrey Matveenko,ankles 041,"2:31:48,103","2:31:48,103",,
Andrey Matveenko,ankles 042,"2:31:48,993","2:31:48,993",,
Andrey Matveenko,ankles 043,"2:31:49,863","2:31:49,863",,
Andrey Matveenko,ankles 044,"2:31:50,573","2:31:50,573",,
Andrey Matveenko,ankles 045,"2:31:51,343","2:31:51,343",,
Andrey Matveenko,ankles 046,"2:31:52,213","2:31:52,213",,
Andrey Matveenko,ankles 047,"2:31:53,003","2:31:53,003",,
Andrey Matveenko,ankles 048,"2:31:53,853","2:31:53,853",,
Andrey Matveenko,ankles 049,"2:31:54,543","2:31:54,543",,
Andrey Matveenko,ankles 050,"2:31:55,333","2:31:55,333",,
Andrey Matveenko,ankles 051,"2:31:56,243","2:31:56,243",,
Andrey Matveenko,ankles 052,"2:31:56,893","2:31:56,893",,
Andrey Matveenko,ankles 053,"2:31:57,603","2:31:57,603",,
Andrey Matveenko,ankles 054,"2:31:58,343","2:31:58,343",,
Andrey Matveenko,ankles 055,"2:31:59,173","2:31:59,173",,
Andrey Matveenko,ankles 056,"2:31:59,923","2:31:59,923",,
Andrey Matveenko,ankles 057,"2:32:00,503","2:32:00,503",,
Andrey Matveenko,ankles 058,"2:32:01,313","2:32:01,313",,
Andrey Matveenko,ankles 059,"2:32:02,083","2:32:02,083",,
Andrey Matveenko,ankles 060,"2:32:02,893","2:32:02,893",,
Andrey Matveenko,ankles 061,"2:32:03,823","2:32:03,823",,
Andrey Matveenko,ankles 062,"2:32:04,753","2:32:04,753",,
Andrey Matveenko,ankles 063,"2:32:05,553","2:32:05,553",,
Andrey Matveenko,ankles 064,"2:32:06,563","2:32:06,563",,
Andrey Matveenko,ankles 065,"2:32:07,493","2:32:07,493",,
Andrey Matveenko,ankles 066,"2:32:08,403","2:32:08,403",,
Andrey Matveenko,ankles 067,"2:32:09,233","2:32:09,233",,
Andrey Matveenko,ankles 068,"2:32:10,513","2:32:10,513",,
Andrey Matveenko,ankles 069,"2:32:11,653","2:32:11,653",,
Andrey Matveenko,ankles 070,"2:32:12,543","2:32:12,543",,
Andrey Matveenko,ankles 071,"2:32:13,523","2:32:13,523",,
Andrey Matveenko,ankles 072,"2:32:14,693","2:32:14,693",,
Andrey Matveenko,ankles 073,"2:32:15,883","2:32:15,883",,
Andrey Matveenko,ankles 074,"2:32:17,113","2:32:17,113",,
Andrey Matveenko,ankles 075,"2:32:18,083","2:32:18,083",,
Andrey Matveenko,ankles 076,"2:32:19,003","2:32:19,003",,
Andrey Matveenko,ankles 077,"2:32:20,403","2:32:20,403",,
Andrey Matveenko,ankles 078,"2:32:21,353","2:32:21,353",,
Andrey Matveenko,ankles 079,"2:32:22,323","2:32:22,323",,
Andrey Matveenko,ankles 080,"2:32:23,753","2:32:23,753",,
Andrey Matveenko,ankles 081,"2:32:24,893","2:32:24,893",,
Andrey Matveenko,ankles 082,"2:32:26,043","2:32:26,043",,
Andrey Matveenko,ankles 083,"2:32:27,033","2:32:27,033",,
Andrey Matveenko,ankles 084,"2:32:28,143","2:32:28,143",,
Andrey Matveenko,ankles 085,"2:32:29,073","2:32:29,073",,
Andrey Matveenko,ankles 086,"2:32:30,103","2:32:30,103",,
Andrey Matveenko,ankles 087,"2:32:31,273","2:32:31,273",,
Andrey Matveenko,ankles 088,"2:32:32,403","2:32:32,403",,
Andrey Matveenko,ankles 089,"2:32:33,613","2:32:33,613",,
Andrey Matveenko,ankles 090,"2:32:34,763","2:32:34,763",,
Andrey Matveenko,ankles 091,"2:32:35,573","2:32:35,573",,
Andrey Matveenko,ankles 092,"2:32:37,093","2:32:37,093",,
Andrey Matveenko,ankles 093,"2:32:38,283","2:32:38,283",,
Andrey Matveenko,ankles 094,"2:32:39,503","2:32:39,503",,
Andrey Matveenko,desc 001,"2:30:09,053","2:31:36,200",,
Andrey Matveenko,asc 001,"2:31:38,368","2:32:42,303",,
Andrey Matveenko,virage 001,"2:31:36,200","2:31:38,073",,
Andrey Matveenko,arms_up 001,"2:30:12,167","2:30:12,167",,
Andrey Matveenko,arms_up 002,"2:31:44,767","2:31:44,767",,
Andrey Matveenko,arms_down 001,"2:30:30,023","2:30:30,023",,
Andrey Matveenko,dp1 001,"2:30:10,167","2:30:10,167",,
Andrey Matveenko,dp1 002,"2:30:10,737","2:30:10,737",,
Andrey Matveenko,dp1 003,"2:30:12,307","2:30:12,307",,
Andrey Matveenko,dp1 004,"2:30:12,837","2:30:12,837",,
Andrey Matveenko,dp1 005,"2:30:13,287","2:30:13,287",,
Andrey Matveenko,dp1 006,"2:30:13,687","2:30:13,687",,
Andrey Matveenko,dp1 007,"2:30:14,157","2:30:14,157",,
Andrey Matveenko,dp1 008,"2:30:14,517","2:30:14,517",,
Andrey Matveenko,dp1 009,"2:30:14,857","2:30:14,857",,
Andrey Matveenko,dp1 010,"2:30:15,237","2:30:15,237",,
Andrey Matveenko,dp1 011,"2:30:15,597","2:30:15,597",,
Andrey Matveenko,dp1 012,"2:30:19,777","2:30:19,777",,
Andrey Matveenko,dp1 013,"2:30:20,777","2:30:20,777",,
Andrey Matveenko,dp1 014,"2:30:21,167","2:30:21,167",,
Andrey Matveenko,dp1 015,"2:30:21,847","2:30:21,847",,
Andrey Matveenko,dp1 016,"2:30:22,967","2:30:22,967",,
Andrey Matveenko,dp1 017,"2:30:23,697","2:30:23,697",,
Andrey Matveenko,dp1 018,"2:30:24,417","2:30:24,417",,
Andrey Matveenko,dp1 019,"2:30:25,127","2:30:25,127",,
Andrey Matveenko,dp1 020,"2:30:26,237","2:30:26,237",,
Andrey Matveenko,dp1 021,"2:30:26,647","2:30:26,647",,
Andrey Matveenko,dp1 022,"2:30:27,307","2:30:27,307",,
Andrey Matveenko,dp1 023,"2:30:27,997","2:30:27,997",,
Andrey Matveenko,dp1 024,"2:30:29,147","2:30:29,147",,
Andrey Matveenko,dp1 025,"2:30:29,537","2:30:29,537",,
Andrey Matveenko,dp1 026,"2:30:30,217","2:30:30,217",,
Andrey Matveenko,dp1 027,"2:30:30,967","2:30:30,967",,
Andrey Matveenko,dp1 028,"2:30:32,407","2:30:32,407",,
Andrey Matveenko,dp1 029,"2:30:33,497","2:30:33,497",,
Andrey Matveenko,dp1 030,"2:30:34,337","2:30:34,337",,
Andrey Matveenko,dp1 031,"2:30:35,087","2:30:35,087",,
Andrey Matveenko,dp1 032,"2:30:36,387","2:30:36,387",,
Andrey Matveenko,dp1 033,"2:30:37,797","2:30:37,797",,
Andrey Matveenko,dp1 034,"2:30:38,567","2:30:38,567",,
Andrey Matveenko,dp1 035,"2:30:39,347","2:30:39,347",,
Andrey Matveenko,dp1 036,"2:30:40,447","2:30:40,447",,
Andrey Matveenko,dp1 037,"2:30:41,457","2:30:41,457",,
Andrey Matveenko,dp1 038,"2:30:43,277","2:30:43,277",,
Andrey Matveenko,dp1 039,"2:30:44,107","2:30:44,107",,
Andrey Matveenko,dp1 040,"2:30:44,817","2:30:44,817",,
Andrey Matveenko,dp1 041,"2:30:45,787","2:30:45,787",,
Andrey Matveenko,dp1 042,"2:30:46,927","2:30:46,927",,
Andrey Matveenko,dp1 043,"2:30:47,347","2:30:47,347",,
Andrey Matveenko,dp1 044,"2:30:48,037","2:30:48,037",,
Andrey Matveenko,dp1 045,"2:30:49,047","2:30:49,047",,
Andrey Matveenko,dp1 046,"2:30:49,807","2:30:49,807",,
Andrey Matveenko,dp1 047,"2:30:50,587","2:30:50,587",,
Andrey Matveenko,dp1 048,"2:30:51,617","2:30:51,617",,
Andrey Matveenko,dp1 049,"2:30:52,757","2:30:52,757",,
Andrey Matveenko,dp1 050,"2:30:54,217","2:30:54,217",,
Andrey Matveenko,dp1 051,"2:30:55,267","2:30:55,267",,
Andrey Matveenko,dp1 052,"2:30:56,347","2:30:56,347",,
Andrey Matveenko,dp1 053,"2:30:57,487","2:30:57,487",,
Andrey Matveenko,dp1 054,"2:30:58,557","2:30:58,557",,
Andrey Matveenko,dp1 055,"2:30:59,647","2:30:59,647",,
Andrey Matveenko,dp1 056,"2:31:00,387","2:31:00,387",,
Andrey Matveenko,dp1 057,"2:31:00,857","2:31:00,857",,
Andrey Matveenko,dp1 058,"2:31:02,007","2:31:02,007",,
Andrey Matveenko,dp1 059,"2:31:03,277","2:31:03,277",,
Andrey Matveenko,dp1 060,"2:31:04,027","2:31:04,027",,
Andrey Matveenko,dp1 061,"2:31:05,087","2:31:05,087",,
Andrey Matveenko,dp1 062,"2:31:06,197","2:31:06,197",,
Andrey Matveenko,dp1 063,"2:31:06,907","2:31:06,907",,
Andrey Matveenko,dp1 064,"2:31:08,367","2:31:08,367",,
Andrey Matveenko,dp1 065,"2:31:09,457","2:31:09,457",,
Andrey Matveenko,dp1 066,"2:31:09,957","2:31:09,957",,
Andrey Matveenko,dp1 067,"2:31:11,617","2:31:11,617",,
Andrey Matveenko,dp1 068,"2:31:12,027","2:31:12,027",,
Andrey Matveenko,dp1 069,"2:31:13,067","2:31:13,067",,
Andrey Matveenko,dp1 070,"2:31:13,877","2:31:13,877",,
Andrey Matveenko,dp1 071,"2:31:14,847","2:31:14,847",,
Andrey Matveenko,dp1 072,"2:31:15,597","2:31:15,597",,
Andrey Matveenko,dp1 073,"2:31:16,687","2:31:16,687",,
Andrey Matveenko,dp1 074,"2:31:17,807","2:31:17,807",,
Andrey Matveenko,dp1 075,"2:31:19,197","2:31:19,197",,
Andrey Matveenko,dp1 076,"2:31:19,987","2:31:19,987",,
Andrey Matveenko,dp1 077,"2:31:21,077","2:31:21,077",,
Andrey Matveenko,dp1 078,"2:31:22,177","2:31:22,177",,
Andrey Matveenko,dp1 079,"2:31:22,917","2:31:22,917",,
Andrey Matveenko,dp1 080,"2:31:23,627","2:31:23,627",,
Andrey Matveenko,dp1 081,"2:31:24,697","2:31:24,697",,
Andrey Matveenko,dp1 082,"2:31:25,427","2:31:25,427",,
Andrey Matveenko,dp1 083,"2:31:26,277","2:31:26,277",,
Andrey Matveenko,dp1 084,"2:31:27,247","2:31:27,247",,
Andrey Matveenko,dp1 085,"2:31:27,997","2:31:27,997",,
Andrey Matveenko,dp1 086,"2:31:28,807","2:31:28,807",,
Andrey Matveenko,dp1 087,"2:31:29,827","2:31:29,827",,
Andrey Matveenko,dp1 088,"2:31:30,697","2:31:30,697",,
Andrey Matveenko,dp1 089,"2:31:31,827","2:31:31,827",,
Andrey Matveenko,dp1 090,"2:31:32,737","2:31:32,737",,
Andrey Matveenko,dp1 091,"2:31:33,777","2:31:33,777",,
Andrey Matveenko,dp1 092,"2:31:35,267","2:31:35,267",,
Andrey Matveenko,dp1 093,"2:31:36,027","2:31:36,027",,
Andrey Matveenko,dm1 001,"2:31:39,607","2:31:39,607",,
Andrey Matveenko,dm1 002,"2:31:40,357","2:31:40,357",,
Andrey Matveenko,dm1 003,"2:31:41,427","2:31:41,427",,
Andrey Matveenko,dm1 004,"2:31:42,557","2:31:42,557",,
Andrey Matveenko,dm1 005,"2:31:42,987","2:31:42,987",,
Andrey Matveenko,dm1 006,"2:31:43,637","2:31:43,637",,
Andrey Matveenko,dm1 007,"2:31:44,347","2:31:44,347",,
Andrey Matveenko,dm1 008,"2:31:45,067","2:31:45,067",,
Andrey Matveenko,dm1 009,"2:31:45,777","2:31:45,777",,
Andrey Matveenko,dm1 010,"2:31:46,227","2:31:46,227",,
Andrey Matveenko,dm1 011,"2:31:46,867","2:31:46,867",,
Andrey Matveenko,dm1 012,"2:31:47,587","2:31:47,587",,
Andrey Matveenko,dm1 013,"2:31:48,297","2:31:48,297",,
Andrey Matveenko,dm1 014,"2:31:48,707","2:31:48,707",,
Andrey Matveenko,dm1 015,"2:31:49,747","2:31:49,747",,
Andrey Matveenko,dm1 016,"2:31:50,167","2:31:50,167",,
Andrey Matveenko,dm1 017,"2:31:50,587","2:31:50,587",,
Andrey Matveenko,dm1 018,"2:31:51,207","2:31:51,207",,
Andrey Matveenko,dm1 019,"2:31:51,957","2:31:51,957",,
Andrey Matveenko,dm1 020,"2:31:52,687","2:31:52,687",,
Andrey Matveenko,dm1 021,"2:31:53,377","2:31:53,377",,
Andrey Matveenko,dm1 022,"2:31:53,747","2:31:53,747",,
Andrey Matveenko,dm1 023,"2:31:54,497","2:31:54,497",,
Andrey Matveenko,dm1 024,"2:31:54,887","2:31:54,887",,
Andrey Matveenko,dm1 025,"2:31:55,687","2:31:55,687",,
Andrey Matveenko,dm1 026,"2:31:56,377","2:31:56,377",,
Andrey Matveenko,dm1 027,"2:31:56,787","2:31:56,787",,
Andrey Matveenko,dm1 028,"2:31:57,407","2:31:57,407",,
Andrey Matveenko,dm1 029,"2:31:58,137","2:31:58,137",,
Andrey Matveenko,dm1 030,"2:31:58,867","2:31:58,867",,
Andrey Matveenko,dm1 031,"2:31:59,217","2:31:59,217",,
Andrey Matveenko,dm1 032,"2:31:59,817","2:31:59,817",,
Andrey Matveenko,dm1 033,"2:32:00,627","2:32:00,627",,
Andrey Matveenko,dm1 034,"2:32:01,057","2:32:01,057",,
Andrey Matveenko,dm1 035,"2:32:01,767","2:32:01,767",,
Andrey Matveenko,dm1 036,"2:32:02,087","2:32:02,087",,
Andrey Matveenko,dm1 037,"2:32:02,997","2:32:02,997",,
Andrey Matveenko,dm1 038,"2:32:03,907","2:32:03,907",,
Andrey Matveenko,dm1 039,"2:32:04,317","2:32:04,317",,
Andrey Matveenko,dm1 040,"2:32:05,027","2:32:05,027",,
Andrey Matveenko,dm1 041,"2:32:05,917","2:32:05,917",,
Andrey Matveenko,dm1 042,"2:32:07,187","2:32:07,187",,
Andrey Matveenko,dm1 043,"2:32:07,607","2:32:07,607",,
Andrey Matveenko,dm1 044,"2:32:08,007","2:32:08,007",,
Andrey Matveenko,dm1 045,"2:32:09,037","2:32:09,037",,
Andrey Matveenko,dm1 046,"2:32:09,777","2:32:09,777",,
Andrey Matveenko,dm1 047,"2:32:10,227","2:32:10,227",,
Andrey Matveenko,dm1 048,"2:32:10,857","2:32:10,857",,
Andrey Matveenko,dm1 049,"2:32:11,577","2:32:11,577",,
Andrey Matveenko,dm1 050,"2:32:12,287","2:32:12,287",,
Andrey Matveenko,dm1 051,"2:32:13,287","2:32:13,287",,
Andrey Matveenko,dm1 052,"2:32:14,097","2:32:14,097",,
Andrey Matveenko,dm1 053,"2:32:14,847","2:32:14,847",,
Andrey Matveenko,dm1 054,"2:32:15,847","2:32:15,847",,
Andrey Matveenko,dm1 055,"2:32:16,327","2:32:16,327",,
Andrey Matveenko,dm1 056,"2:32:17,377","2:32:17,377",,
Andrey Matveenko,dm1 057,"2:32:18,127","2:32:18,127",,
Andrey Matveenko,dm1 058,"2:32:18,847","2:32:18,847",,
Andrey Matveenko,dm1 059,"2:32:19,587","2:32:19,587",,
Andrey Matveenko,dm1 060,"2:32:20,337","2:32:20,337",,
Andrey Matveenko,dm1 061,"2:32:21,007","2:32:21,007",,
Andrey Matveenko,dm1 062,"2:32:22,167","2:32:22,167",,
Andrey Matveenko,dm1 063,"2:32:22,577","2:32:22,577",,
Andrey Matveenko,dm1 064,"2:32:23,237","2:32:23,237",,
Andrey Matveenko,dm1 065,"2:32:23,957","2:32:23,957",,
Andrey Matveenko,dm1 066,"2:32:24,847","2:32:24,847",,
Andrey Matveenko,dm1 067,"2:32:25,417","2:32:25,417",,
Andrey Matveenko,dm1 068,"2:32:26,127","2:32:26,127",,
Andrey Matveenko,dm1 069,"2:32:26,827","2:32:26,827",,
Andrey Matveenko,dm1 070,"2:32:27,397","2:32:27,397",,
Andrey Matveenko,dm1 071,"2:32:28,087","2:32:28,087",,
Andrey Matveenko,dm1 072,"2:32:29,347","2:32:29,347",,
Andrey Matveenko,dm1 073,"2:32:30,137","2:32:30,137",,
Andrey Matveenko,dm1 074,"2:32:30,807","2:32:30,807",,
Andrey Matveenko,dm1 075,"2:32:31,577","2:32:31,577",,
Andrey Matveenko,dm1 076,"2:32:32,297","2:32:32,297",,
Andrey Matveenko,dm1 077,"2:32:32,987","2:32:32,987",,
Andrey Matveenko,dm1 078,"2:32:34,067","2:32:34,067",,
Andrey Matveenko,dm1 079,"2:32:34,827","2:32:34,827",,
Andrey Matveenko,dm1 080,"2:32:35,437","2:32:35,437",,
Andrey Matveenko,dm1 081,"2:32:36,187","2:32:36,187",,
Andrey Matveenko,dm1 082,"2:32:36,677","2:32:36,677",,
Andrey Matveenko,dm1 083,"2:32:37,197","2:32:37,197",,
