﻿Athlete,Name,Start,Stop,Depth_1,Depth_2,Day
Andriy Khvetkevych,prop_b 001,"1:12:31,876","1:12:31,876",,,1
Andriy Khvetkevych,prop_b 002,"1:12:35,036","1:12:35,036",,,1
Andriy Khvetkevych,prop_b 003,"1:12:38,146","1:12:38,146",,,1
Andriy Khvetkevych,prop_b 004,"1:12:41,496","1:12:41,496",,,1
Andriy Khvetkevych,prop_b 005,"1:12:45,326","1:12:45,326",,,1
Andriy Khvetkevych,prop_b 006,"1:12:49,486","1:12:49,486",,,1
Andriy Khvetkevych,prop_b 007,"1:12:54,196","1:12:54,196",,,1
Andriy Khvetkevych,prop_b 008,"1:12:58,716","1:12:58,716",,,1
Andriy Khvetkevych,prop_b 009,"1:13:52,633","1:13:52,633",,,1
Andriy Khvetkevych,prop_b 010,"1:13:54,863","1:13:54,863",,,1
Andriy Khvetkevych,prop_b 011,"1:13:57,203","1:13:57,203",,,1
Andriy Khvetkevych,prop_b 012,"1:13:59,603","1:13:59,603",,,1
Andriy Khvetkevych,prop_b 013,"1:14:02,203","1:14:02,203",,,1
Andriy Khvetkevych,prop_b 014,"1:14:04,863","1:14:04,863",,,1
Andriy Khvetkevych,prop_b 015,"1:14:07,313","1:14:07,313",,,1
Andriy Khvetkevych,prop_b 016,"1:14:09,913","1:14:09,913",,,1
Andriy Khvetkevych,prop_b 017,"1:14:12,963","1:14:12,963",,,1
Andriy Khvetkevych,prop_b 018,"1:14:15,823","1:14:15,823",,,1
Andriy Khvetkevych,prop_b 019,"1:14:18,533","1:14:18,533",,,1
Andriy Khvetkevych,prop_b 020,"1:14:21,213","1:14:21,213",,,1
Andriy Khvetkevych,prop_b 021,"1:14:23,953","1:14:23,953",,,1
Andriy Khvetkevych,prop_b 022,"1:14:26,993","1:14:26,993",,,1
Andriy Khvetkevych,prop_b 023,"1:14:29,733","1:14:29,733",,,1
Andriy Khvetkevych,prop_b 024,"1:14:32,803","1:14:32,803",,,1
Andriy Khvetkevych,prop_b 025,"1:14:36,083","1:14:36,083",,,1
Andriy Khvetkevych,prop_b 026,"1:14:38,983","1:14:38,983",,,1
Andriy Khvetkevych,prop_b 027,"1:14:42,013","1:14:42,013",,,1
Andriy Khvetkevych,prop_b 028,"1:14:44,953","1:14:44,953",,,1
Andriy Khvetkevych,prop_b 029,"1:14:47,763","1:14:47,763",,,1
Andriy Khvetkevych,prop_b 030,"1:14:51,273","1:14:51,273",,,1
Andriy Khvetkevych,prop_b 031,"1:14:54,093","1:14:54,093",,,1
Andriy Khvetkevych,prop_b 032,"1:14:57,243","1:14:57,243",,,1
Andriy Khvetkevych,prop_b 033,"1:15:00,133","1:15:00,133",,,1
Andriy Khvetkevych,prop_b 034,"1:15:03,963","1:15:03,963",,,1
Andriy Khvetkevych,prop_b 035,"1:15:11,953","1:15:11,953",,,1
Andriy Khvetkevych,prop_j 001,"1:12:31,986","1:12:31,986",,,1
Andriy Khvetkevych,prop_j 002,"1:12:34,836","1:12:34,836",,,1
Andriy Khvetkevych,prop_j 003,"1:12:37,796","1:12:37,796",,,1
Andriy Khvetkevych,prop_j 004,"1:12:41,316","1:12:41,316",,,1
Andriy Khvetkevych,prop_j 005,"1:12:45,036","1:12:45,036",,,1
Andriy Khvetkevych,prop_j 006,"1:12:49,196","1:12:49,196",,,1
Andriy Khvetkevych,prop_j 007,"1:12:53,586","1:12:53,586",,,1
Andriy Khvetkevych,prop_j 008,"1:12:58,466","1:12:58,466",,,1
Andriy Khvetkevych,prop_j 009,"1:13:07,676","1:13:07,676",,,1
Andriy Khvetkevych,prop_j 010,"1:13:52,276","1:13:52,276",,,1
Andriy Khvetkevych,prop_j 011,"1:13:54,506","1:13:54,506",,,1
Andriy Khvetkevych,prop_j 012,"1:13:56,996","1:13:56,996",,,1
Andriy Khvetkevych,prop_j 013,"1:13:59,276","1:13:59,276",,,1
Andriy Khvetkevych,prop_j 014,"1:14:01,866","1:14:01,866",,,1
Andriy Khvetkevych,prop_j 015,"1:14:04,506","1:14:04,506",,,1
Andriy Khvetkevych,prop_j 016,"1:14:06,906","1:14:06,906",,,1
Andriy Khvetkevych,prop_j 017,"1:14:09,606","1:14:09,606",,,1
Andriy Khvetkevych,prop_j 018,"1:14:12,616","1:14:12,616",,,1
Andriy Khvetkevych,prop_j 019,"1:14:15,296","1:14:15,296",,,1
Andriy Khvetkevych,prop_j 020,"1:14:18,146","1:14:18,146",,,1
Andriy Khvetkevych,prop_j 021,"1:14:21,026","1:14:21,026",,,1
Andriy Khvetkevych,prop_j 022,"1:14:23,566","1:14:23,566",,,1
Andriy Khvetkevych,prop_j 023,"1:14:26,426","1:14:26,426",,,1
Andriy Khvetkevych,prop_j 024,"1:14:29,486","1:14:29,486",,,1
Andriy Khvetkevych,prop_j 025,"1:14:32,496","1:14:32,496",,,1
Andriy Khvetkevych,prop_j 026,"1:14:35,796","1:14:35,796",,,1
Andriy Khvetkevych,prop_j 027,"1:14:38,606","1:14:38,606",,,1
Andriy Khvetkevych,prop_j 028,"1:14:41,856","1:14:41,856",,,1
Andriy Khvetkevych,prop_j 029,"1:14:44,696","1:14:44,696",,,1
Andriy Khvetkevych,prop_j 030,"1:14:47,586","1:14:47,586",,,1
Andriy Khvetkevych,prop_j 031,"1:14:50,816","1:14:50,816",,,1
Andriy Khvetkevych,prop_j 032,"1:14:53,866","1:14:53,866",,,1
Andriy Khvetkevych,prop_j 033,"1:14:56,986","1:14:56,986",,,1
Andriy Khvetkevych,prop_j 034,"1:14:59,886","1:14:59,886",,,1
Andriy Khvetkevych,prop_j 035,"1:15:03,676","1:15:03,676",,,1
Andriy Khvetkevych,prop_j 036,"1:15:11,716","1:15:11,716",,,1
Andriy Khvetkevych,tag 001,"1:13:48,699","1:13:48,699",,,1
Andriy Khvetkevych,desc 001,"1:12:30,066","1:13:46,666",,,1
Andriy Khvetkevych,asc 001,"1:13:51,334","1:15:18,063",,,1
Andriy Khvetkevych,virage 001,"1:13:46,666","1:13:50,766",,,1
Andriy Khvetkevych,dp1 001,"1:12:29,543","1:12:29,543",,,1
Andriy Khvetkevych,dp1 002,"1:12:30,633","1:12:30,633",,,1
Andriy Khvetkevych,dp1 003,"1:12:31,343","1:12:31,343",,,1
Andriy Khvetkevych,dp1 004,"1:12:31,973","1:12:31,973",,,1
Andriy Khvetkevych,dp1 005,"1:12:32,513","1:12:32,513",,,1
Andriy Khvetkevych,dp1 006,"1:12:33,063","1:12:33,063",,,1
Andriy Khvetkevych,dp1 007,"1:12:34,333","1:12:34,333",,,1
Andriy Khvetkevych,dp1 008,"1:12:35,443","1:12:35,443",,,1
Andriy Khvetkevych,dp1 009,"1:12:36,833","1:12:36,833",,,1
Andriy Khvetkevych,dp1 010,"1:12:39,013","1:12:39,013",,,1
Andriy Khvetkevych,dp1 011,"1:12:40,913","1:12:40,913",,,1
Andriy Khvetkevych,dp1 012,"1:12:42,243","1:12:42,243",,,1
Andriy Khvetkevych,dp1 013,"1:12:43,373","1:12:43,373",,,1
Andriy Khvetkevych,dp1 014,"1:12:44,173","1:12:44,173",,,1
Andriy Khvetkevych,dp1 015,"1:12:44,983","1:12:44,983",,,1
Andriy Khvetkevych,dp1 016,"1:12:46,073","1:12:46,073",,,1
Andriy Khvetkevych,dp1 017,"1:12:47,203","1:12:47,203",,,1
Andriy Khvetkevych,dp1 018,"1:12:48,533","1:12:48,533",,,1
Andriy Khvetkevych,dp1 019,"1:12:49,983","1:12:49,983",,,1
Andriy Khvetkevych,dp1 020,"1:12:51,013","1:12:51,013",,,1
Andriy Khvetkevych,dp1 021,"1:12:52,073","1:12:52,073",,,1
Andriy Khvetkevych,dp1 022,"1:12:52,943","1:12:52,943",,,1
Andriy Khvetkevych,dp1 023,"1:12:53,993","1:12:53,993",,,1
Andriy Khvetkevych,dp1 024,"1:12:55,113","1:12:55,113",,,1
Andriy Khvetkevych,dp1 025,"1:12:56,133","1:12:56,133",,,1
Andriy Khvetkevych,dp1 026,"1:12:57,303","1:12:57,303",,,1
Andriy Khvetkevych,dp1 027,"1:12:57,913","1:12:57,913",,,1
Andriy Khvetkevych,dp1 028,"1:12:58,873","1:12:58,873",,,1
Andriy Khvetkevych,dp1 029,"1:13:00,003","1:13:00,003",,,1
Andriy Khvetkevych,dp1 030,"1:13:00,983","1:13:00,983",,,1
Andriy Khvetkevych,dp1 031,"1:13:02,453","1:13:02,453",,,1
Andriy Khvetkevych,dp1 032,"1:13:03,543","1:13:03,543",,,1
Andriy Khvetkevych,dp1 033,"1:13:04,673","1:13:04,673",,,1
Andriy Khvetkevych,dp1 034,"1:13:05,773","1:13:05,773",,,1
Andriy Khvetkevych,dp1 035,"1:13:06,843","1:13:06,843",,,1
Andriy Khvetkevych,dp1 036,"1:13:08,143","1:13:08,143",,,1
Andriy Khvetkevych,dp1 037,"1:13:09,613","1:13:09,613",,,1
Andriy Khvetkevych,dp1 038,"1:13:11,173","1:13:11,173",,,1
Andriy Khvetkevych,dp1 039,"1:13:12,543","1:13:12,543",,,1
Andriy Khvetkevych,dp1 040,"1:13:13,643","1:13:13,643",,,1
Andriy Khvetkevych,dp1 041,"1:13:14,963","1:13:14,963",,,1
Andriy Khvetkevych,dp1 042,"1:13:16,103","1:13:16,103",,,1
Andriy Khvetkevych,dp1 043,"1:13:17,433","1:13:17,433",,,1
Andriy Khvetkevych,dp1 044,"1:13:18,523","1:13:18,523",,,1
Andriy Khvetkevych,dp1 045,"1:13:19,753","1:13:19,753",,,1
Andriy Khvetkevych,dp1 046,"1:13:21,083","1:13:21,083",,,1
Andriy Khvetkevych,dp1 047,"1:13:22,373","1:13:22,373",,,1
Andriy Khvetkevych,dp1 048,"1:13:23,433","1:13:23,433",,,1
Andriy Khvetkevych,dp1 049,"1:13:24,643","1:13:24,643",,,1
Andriy Khvetkevych,dp1 050,"1:13:26,033","1:13:26,033",,,1
Andriy Khvetkevych,dp1 051,"1:13:27,263","1:13:27,263",,,1
Andriy Khvetkevych,dp1 052,"1:13:28,553","1:13:28,553",,,1
Andriy Khvetkevych,dp1 053,"1:13:29,703","1:13:29,703",,,1
Andriy Khvetkevych,dp1 054,"1:13:30,673","1:13:30,673",,,1
Andriy Khvetkevych,dp1 055,"1:13:31,923","1:13:31,923",,,1
Andriy Khvetkevych,dp1 056,"1:13:32,993","1:13:32,993",,,1
Andriy Khvetkevych,dp1 057,"1:13:34,083","1:13:34,083",,,1
Andriy Khvetkevych,dp1 058,"1:13:35,113","1:13:35,113",,,1
Andriy Khvetkevych,dp1 059,"1:13:36,193","1:13:36,193",,,1
Andriy Khvetkevych,dp1 060,"1:13:37,553","1:13:37,553",,,1
Andriy Khvetkevych,dp1 061,"1:13:39,003","1:13:39,003",,,1
Andriy Khvetkevych,dp1 062,"1:13:39,833","1:13:39,833",,,1
Andriy Khvetkevych,dp1 063,"1:13:41,143","1:13:41,143",,,1
Andriy Khvetkevych,dp1 064,"1:13:42,573","1:13:42,573",,,1
Andriy Khvetkevych,dp1 065,"1:13:43,883","1:13:43,883",,,1
Andriy Khvetkevych,dp1 066,"1:13:44,993","1:13:44,993",,,1
Andriy Khvetkevych,dp1 067,"1:13:46,103","1:13:46,103",,,1
Andriy Khvetkevych,dm1 001,"1:13:50,673","1:13:50,673",,,1
Andriy Khvetkevych,dm1 002,"1:13:52,113","1:13:52,113",,,1
Andriy Khvetkevych,dm1 003,"1:13:53,403","1:13:53,403",,,1
Andriy Khvetkevych,dm1 004,"1:13:54,453","1:13:54,453",,,1
Andriy Khvetkevych,dm1 005,"1:13:55,863","1:13:55,863",,,1
Andriy Khvetkevych,dm1 006,"1:13:56,893","1:13:56,893",,,1
Andriy Khvetkevych,dm1 007,"1:13:58,283","1:13:58,283",,,1
Andriy Khvetkevych,dm1 008,"1:13:59,923","1:13:59,923",,,1
Andriy Khvetkevych,dm1 009,"1:14:01,273","1:14:01,273",,,1
Andriy Khvetkevych,dm1 010,"1:14:02,393","1:14:02,393",,,1
Andriy Khvetkevych,dm1 011,"1:14:03,723","1:14:03,723",,,1
Andriy Khvetkevych,dm1 012,"1:14:04,813","1:14:04,813",,,1
Andriy Khvetkevych,dm1 013,"1:14:05,903","1:14:05,903",,,1
Andriy Khvetkevych,dm1 014,"1:14:07,163","1:14:07,163",,,1
Andriy Khvetkevych,dm1 015,"1:14:08,813","1:14:08,813",,,1
Andriy Khvetkevych,dm1 016,"1:14:10,223","1:14:10,223",,,1
Andriy Khvetkevych,dm1 017,"1:14:11,883","1:14:11,883",,,1
Andriy Khvetkevych,dm1 018,"1:14:13,033","1:14:13,033",,,1
Andriy Khvetkevych,dm1 019,"1:14:14,363","1:14:14,363",,,1
Andriy Khvetkevych,dm1 020,"1:14:15,713","1:14:15,713",,,1
Andriy Khvetkevych,dm1 021,"1:14:16,883","1:14:16,883",,,1
Andriy Khvetkevych,dm1 022,"1:14:18,073","1:14:18,073",,,1
Andriy Khvetkevych,dm1 023,"1:14:19,593","1:14:19,593",,,1
Andriy Khvetkevych,dm1 024,"1:14:20,883","1:14:20,883",,,1
Andriy Khvetkevych,dm1 025,"1:14:21,873","1:14:21,873",,,1
Andriy Khvetkevych,dm1 026,"1:14:23,603","1:14:23,603",,,1
Andriy Khvetkevych,dm1 027,"1:14:24,763","1:14:24,763",,,1
Andriy Khvetkevych,dm1 028,"1:14:26,113","1:14:26,113",,,1
Andriy Khvetkevych,dm1 029,"1:14:27,403","1:14:27,403",,,1
Andriy Khvetkevych,dm1 030,"1:14:28,863","1:14:28,863",,,1
Andriy Khvetkevych,dm1 031,"1:14:30,433","1:14:30,433",,,1
Andriy Khvetkevych,dm1 032,"1:14:32,273","1:14:32,273",,,1
Andriy Khvetkevych,dm1 033,"1:14:33,583","1:14:33,583",,,1
Andriy Khvetkevych,dm1 034,"1:14:34,813","1:14:34,813",,,1
Andriy Khvetkevych,dm1 035,"1:14:36,163","1:14:36,163",,,1
Andriy Khvetkevych,dm1 036,"1:14:37,353","1:14:37,353",,,1
Andriy Khvetkevych,dm1 037,"1:14:38,603","1:14:38,603",,,1
Andriy Khvetkevych,dm1 038,"1:14:40,153","1:14:40,153",,,1
Andriy Khvetkevych,dm1 039,"1:14:41,463","1:14:41,463",,,1
Andriy Khvetkevych,dm1 040,"1:14:42,783","1:14:42,783",,,1
Andriy Khvetkevych,dm1 041,"1:14:44,153","1:14:44,153",,,1
Andriy Khvetkevych,dm1 042,"1:14:45,383","1:14:45,383",,,1
Andriy Khvetkevych,dm1 043,"1:14:46,783","1:14:46,783",,,1
Andriy Khvetkevych,dm1 044,"1:14:48,013","1:14:48,013",,,1
Andriy Khvetkevych,dm1 045,"1:14:49,393","1:14:49,393",,,1
Andriy Khvetkevych,dm1 046,"1:14:50,923","1:14:50,923",,,1
Andriy Khvetkevych,dm1 047,"1:14:52,403","1:14:52,403",,,1
Andriy Khvetkevych,dm1 048,"1:14:53,743","1:14:53,743",,,1
Andriy Khvetkevych,dm1 049,"1:14:55,353","1:14:55,353",,,1
Andriy Khvetkevych,dm1 050,"1:14:56,723","1:14:56,723",,,1
Andriy Khvetkevych,dm1 051,"1:14:58,353","1:14:58,353",,,1
Andriy Khvetkevych,dm1 052,"1:14:59,753","1:14:59,753",,,1
Andriy Khvetkevych,dm1 053,"1:15:01,083","1:15:01,083",,,1
Andriy Khvetkevych,dm1 054,"1:15:02,533","1:15:02,533",,,1
Andriy Khvetkevych,dm1 055,"1:15:03,723","1:15:03,723",,,1
Andriy Khvetkevych,dm1 056,"1:15:04,933","1:15:04,933",,,1
Andriy Khvetkevych,dm1 057,"1:15:06,283","1:15:06,283",,,1
Andriy Khvetkevych,dm1 058,"1:15:07,413","1:15:07,413",,,1
Andriy Khvetkevych,dm1 059,"1:15:08,463","1:15:08,463",,,1
Andriy Khvetkevych,dm1 060,"1:15:09,753","1:15:09,753",,,1
Andriy Khvetkevych,dm1 061,"1:15:10,903","1:15:10,903",,,1
Andriy Khvetkevych,dm1 062,"1:15:12,193","1:15:12,193",,,1
