﻿Athlete,Name,Start,Stop,Depth_1,Depth_2,Day
Tatsuma Kitahara,hips 001,"57:16,077","57:16,077",,,8
Tatsuma Kitahara,hips 002,"57:17,499","57:17,499",,,8
Tatsuma Kitahara,hips 003,"57:19,139","57:19,139",,,8
Tatsuma Kitahara,hips 004,"57:20,778","57:20,778",,,8
Tatsuma Kitahara,hips 005,"57:22,242","57:22,242",,,8
Tatsuma Kitahara,hips 006,"57:23,734","57:23,734",,,8
Tatsuma Kitahara,hips 007,"57:25,261","57:25,261",,,8
Tatsuma Kitahara,hips 008,"57:27,011","57:27,011",,,8
Tatsuma Kitahara,hips 009,"57:28,554","57:28,554",,,8
Tatsuma Kitahara,hips 010,"57:30,024","57:30,024",,,8
Tatsuma Kitahara,hips 011,"57:31,841","57:31,841",,,8
Tatsuma Kitahara,hips 012,"57:33,658","57:33,658",,,8
Tatsuma Kitahara,hips 013,"57:35,239","57:35,239",,,8
Tatsuma Kitahara,hips 014,"57:36,614","57:36,614",,,8
Tatsuma Kitahara,hips 015,"57:38,356","57:38,356",,,8
Tatsuma Kitahara,hips 016,"57:40,649","57:40,649",,,8
Tatsuma Kitahara,hips 017,"57:43,030","57:43,030",,,8
Tatsuma Kitahara,hips 018,"57:45,095","57:45,095",,,8
Tatsuma Kitahara,hips 019,"57:47,168","57:47,168",,,8
Tatsuma Kitahara,hips 020,"57:49,225","57:49,225",,,8
Tatsuma Kitahara,hips 021,"58:15,722","58:15,722",,,8
Tatsuma Kitahara,hips 022,"58:17,964","58:17,964",,,8
Tatsuma Kitahara,hips 023,"58:19,242","58:19,242",,,8
Tatsuma Kitahara,hips 024,"58:20,642","58:20,642",,,8
Tatsuma Kitahara,hips 025,"58:21,944","58:21,944",,,8
Tatsuma Kitahara,hips 026,"58:23,686","58:23,686",,,8
Tatsuma Kitahara,hips 027,"58:25,365","58:25,365",,,8
Tatsuma Kitahara,hips 028,"58:26,547","58:26,547",,,8
Tatsuma Kitahara,hips 029,"58:27,568","58:27,568",,,8
Tatsuma Kitahara,hips 030,"58:29,968","58:29,968",,,8
Tatsuma Kitahara,hips 031,"58:31,448","58:31,448",,,8
Tatsuma Kitahara,hips 032,"58:33,591","58:33,591",,,8
Tatsuma Kitahara,hips 033,"58:34,771","58:34,771",,,8
Tatsuma Kitahara,hips 034,"58:36,548","58:36,548",,,8
Tatsuma Kitahara,hips 035,"58:39,012","58:39,012",,,8
Tatsuma Kitahara,hips 036,"58:40,999","58:40,999",,,8
Tatsuma Kitahara,hips 037,"58:43,090","58:43,090",,,8
Tatsuma Kitahara,hips 038,"58:45,190","58:45,190",,,8
Tatsuma Kitahara,hips 039,"58:47,340","58:47,340",,,8
Tatsuma Kitahara,hips 040,"58:49,575","58:49,575",,,8
Tatsuma Kitahara,hips 041,"58:52,237","58:52,237",,,8
Tatsuma Kitahara,hips 042,"58:55,125","58:55,125",,,8
Tatsuma Kitahara,hips 043,"58:57,354","58:57,354",,,8
Tatsuma Kitahara,hips 044,"58:59,598","58:59,598",,,8
Tatsuma Kitahara,knees 001,"57:16,052","57:16,052",,,8
Tatsuma Kitahara,knees 002,"57:17,390","57:17,390",,,8
Tatsuma Kitahara,knees 003,"57:18,817","57:18,817",,,8
Tatsuma Kitahara,knees 004,"57:20,436","57:20,436",,,8
Tatsuma Kitahara,knees 005,"57:22,085","57:22,085",,,8
Tatsuma Kitahara,knees 006,"57:23,618","57:23,618",,,8
Tatsuma Kitahara,knees 007,"57:25,004","57:25,004",,,8
Tatsuma Kitahara,knees 008,"57:26,693","57:26,693",,,8
Tatsuma Kitahara,knees 009,"57:28,300","57:28,300",,,8
Tatsuma Kitahara,knees 010,"57:30,173","57:30,173",,,8
Tatsuma Kitahara,knees 011,"57:31,749","57:31,749",,,8
Tatsuma Kitahara,knees 012,"57:33,336","57:33,336",,,8
Tatsuma Kitahara,knees 013,"57:34,992","57:34,992",,,8
Tatsuma Kitahara,knees 014,"57:36,687","57:36,687",,,8
Tatsuma Kitahara,knees 015,"57:38,333","57:38,333",,,8
Tatsuma Kitahara,knees 016,"57:40,407","57:40,407",,,8
Tatsuma Kitahara,knees 017,"57:42,996","57:42,996",,,8
Tatsuma Kitahara,knees 018,"57:45,180","57:45,180",,,8
Tatsuma Kitahara,knees 019,"57:46,695","57:46,695",,,8
Tatsuma Kitahara,knees 020,"57:49,208","57:49,208",,,8
Tatsuma Kitahara,knees 021,"58:16,045","58:16,045",,,8
Tatsuma Kitahara,knees 022,"58:17,671","58:17,671",,,8
Tatsuma Kitahara,knees 023,"58:19,081","58:19,081",,,8
Tatsuma Kitahara,knees 024,"58:20,420","58:20,420",,,8
Tatsuma Kitahara,knees 025,"58:21,886","58:21,886",,,8
Tatsuma Kitahara,knees 026,"58:23,515","58:23,515",,,8
Tatsuma Kitahara,knees 027,"58:25,106","58:25,106",,,8
Tatsuma Kitahara,knees 028,"58:26,250","58:26,250",,,8
Tatsuma Kitahara,knees 029,"58:27,710","58:27,710",,,8
Tatsuma Kitahara,knees 030,"58:29,732","58:29,732",,,8
Tatsuma Kitahara,knees 031,"58:31,176","58:31,176",,,8
Tatsuma Kitahara,knees 032,"58:33,158","58:33,158",,,8
Tatsuma Kitahara,knees 033,"58:34,711","58:34,711",,,8
Tatsuma Kitahara,knees 034,"58:36,386","58:36,386",,,8
Tatsuma Kitahara,knees 035,"58:38,643","58:38,643",,,8
Tatsuma Kitahara,knees 036,"58:40,540","58:40,540",,,8
Tatsuma Kitahara,knees 037,"58:42,538","58:42,538",,,8
Tatsuma Kitahara,knees 038,"58:45,024","58:45,024",,,8
Tatsuma Kitahara,knees 039,"58:47,135","58:47,135",,,8
Tatsuma Kitahara,knees 040,"58:49,360","58:49,360",,,8
Tatsuma Kitahara,knees 041,"58:51,578","58:51,578",,,8
Tatsuma Kitahara,knees 042,"58:55,025","58:55,025",,,8
Tatsuma Kitahara,knees 043,"58:57,191","58:57,191",,,8
Tatsuma Kitahara,knees 044,"58:59,134","58:59,134",,,8
Tatsuma Kitahara,knees 045,"59:04,277","59:04,277",,,8
Tatsuma Kitahara,ankles 001,"57:16,297","57:16,297",,,8
Tatsuma Kitahara,ankles 002,"57:16,957","57:16,957",,,8
Tatsuma Kitahara,ankles 003,"57:18,422","57:18,422",,,8
Tatsuma Kitahara,ankles 004,"57:20,044","57:20,044",,,8
Tatsuma Kitahara,ankles 005,"57:21,624","57:21,624",,,8
Tatsuma Kitahara,ankles 006,"57:23,164","57:23,164",,,8
Tatsuma Kitahara,ankles 007,"57:24,486","57:24,486",,,8
Tatsuma Kitahara,ankles 008,"57:26,112","57:26,112",,,8
Tatsuma Kitahara,ankles 009,"57:27,802","57:27,802",,,8
Tatsuma Kitahara,ankles 010,"57:29,758","57:29,758",,,8
Tatsuma Kitahara,ankles 011,"57:31,282","57:31,282",,,8
Tatsuma Kitahara,ankles 012,"57:32,892","57:32,892",,,8
Tatsuma Kitahara,ankles 013,"57:34,532","57:34,532",,,8
Tatsuma Kitahara,ankles 014,"57:35,882","57:35,882",,,8
Tatsuma Kitahara,ankles 015,"57:37,224","57:37,224",,,8
Tatsuma Kitahara,ankles 016,"57:39,238","57:39,238",,,8
Tatsuma Kitahara,ankles 017,"57:42,544","57:42,544",,,8
Tatsuma Kitahara,ankles 018,"57:44,837","57:44,837",,,8
Tatsuma Kitahara,ankles 019,"57:46,912","57:46,912",,,8
Tatsuma Kitahara,ankles 020,"57:49,337","57:49,337",,,8
Tatsuma Kitahara,ankles 021,"58:16,020","58:16,020",,,8
Tatsuma Kitahara,ankles 022,"58:17,347","58:17,347",,,8
Tatsuma Kitahara,ankles 023,"58:18,804","58:18,804",,,8
Tatsuma Kitahara,ankles 024,"58:20,198","58:20,198",,,8
Tatsuma Kitahara,ankles 025,"58:21,669","58:21,669",,,8
Tatsuma Kitahara,ankles 026,"58:23,209","58:23,209",,,8
Tatsuma Kitahara,ankles 027,"58:24,756","58:24,756",,,8
Tatsuma Kitahara,ankles 028,"58:26,224","58:26,224",,,8
Tatsuma Kitahara,ankles 029,"58:27,351","58:27,351",,,8
Tatsuma Kitahara,ankles 030,"58:29,063","58:29,063",,,8
Tatsuma Kitahara,ankles 031,"58:30,831","58:30,831",,,8
Tatsuma Kitahara,ankles 032,"58:32,654","58:32,654",,,8
Tatsuma Kitahara,ankles 033,"58:34,240","58:34,240",,,8
Tatsuma Kitahara,ankles 034,"58:35,911","58:35,911",,,8
Tatsuma Kitahara,ankles 035,"58:37,896","58:37,896",,,8
Tatsuma Kitahara,ankles 036,"58:40,289","58:40,289",,,8
Tatsuma Kitahara,ankles 037,"58:42,226","58:42,226",,,8
Tatsuma Kitahara,ankles 038,"58:44,619","58:44,619",,,8
Tatsuma Kitahara,ankles 039,"58:46,826","58:46,826",,,8
Tatsuma Kitahara,ankles 040,"58:49,110","58:49,110",,,8
Tatsuma Kitahara,ankles 041,"58:51,305","58:51,305",,,8
Tatsuma Kitahara,ankles 042,"58:54,748","58:54,748",,,8
Tatsuma Kitahara,ankles 043,"58:56,812","58:56,812",,,8
Tatsuma Kitahara,ankles 044,"58:59,292","58:59,292",,,8
Tatsuma Kitahara,ankles 045,"59:03,970","59:03,970",,,8
Tatsuma Kitahara,desc 001,"57:12,536","58:11,294",,,8
Tatsuma Kitahara,asc 001,"58:14,786","59:06,925",,,8
Tatsuma Kitahara,virage 001,"58:11,581","58:14,514",,,8
Tatsuma Kitahara,arms_up 001,"57:20,193","57:20,193",,,8
Tatsuma Kitahara,arms_up 002,"58:16,952","58:16,952",,,8
Tatsuma Kitahara,arms_down 001,"59:03,034","59:03,034",,,8
Tatsuma Kitahara,tag 001,"58:12,186","58:12,186",,,8
Tatsuma Kitahara,dp1 001,"57:12,748","57:12,748",,,8
Tatsuma Kitahara,dp1 002,"57:13,524","57:13,524",,,8
Tatsuma Kitahara,dp1 003,"57:14,082","57:14,082",,,8
Tatsuma Kitahara,dp1 004,"57:14,551","57:14,551",,,8
Tatsuma Kitahara,dp1 005,"57:15,099","57:15,099",,,8
Tatsuma Kitahara,dp1 006,"57:15,565","57:15,565",,,8
Tatsuma Kitahara,dp1 007,"57:16,013","57:16,013",,,8
Tatsuma Kitahara,dp1 008,"57:16,483","57:16,483",,,8
Tatsuma Kitahara,dp1 009,"57:16,931","57:16,931",,,8
Tatsuma Kitahara,dp1 010,"57:17,359","57:17,359",,,8
Tatsuma Kitahara,dp1 011,"57:17,829","57:17,829",,,8
Tatsuma Kitahara,dp1 012,"57:24,857","57:24,857",,,8
Tatsuma Kitahara,dp1 013,"57:25,473","57:25,473",,,8
Tatsuma Kitahara,dp1 014,"57:26,472","57:26,472",,,8
Tatsuma Kitahara,dp1 015,"57:27,606","57:27,606",,,8
Tatsuma Kitahara,dp1 016,"57:28,668","57:28,668",,,8
Tatsuma Kitahara,dp1 017,"57:29,749","57:29,749",,,8
Tatsuma Kitahara,dp1 018,"57:31,206","57:31,206",,,8
Tatsuma Kitahara,dp1 019,"57:32,257","57:32,257",,,8
Tatsuma Kitahara,dp1 020,"57:33,394","57:33,394",,,8
Tatsuma Kitahara,dp1 021,"57:34,838","57:34,838",,,8
Tatsuma Kitahara,dp1 022,"57:35,937","57:35,937",,,8
Tatsuma Kitahara,dp1 023,"57:37,061","57:37,061",,,8
Tatsuma Kitahara,dp1 024,"57:38,436","57:38,436",,,8
Tatsuma Kitahara,dp1 025,"57:39,579","57:39,579",,,8
Tatsuma Kitahara,dp1 026,"57:40,668","57:40,668",,,8
Tatsuma Kitahara,dp1 027,"57:41,448","57:41,448",,,8
Tatsuma Kitahara,dp1 028,"57:42,166","57:42,166",,,8
Tatsuma Kitahara,dp1 029,"57:43,193","57:43,193",,,8
Tatsuma Kitahara,dp1 030,"57:43,932","57:43,932",,,8
Tatsuma Kitahara,dp1 031,"57:44,948","57:44,948",,,8
Tatsuma Kitahara,dp1 032,"57:45,759","57:45,759",,,8
Tatsuma Kitahara,dp1 033,"57:46,740","57:46,740",,,8
Tatsuma Kitahara,dp1 034,"57:47,538","57:47,538",,,8
Tatsuma Kitahara,dp1 035,"57:48,560","57:48,560",,,8
Tatsuma Kitahara,dp1 036,"57:49,407","57:49,407",,,8
Tatsuma Kitahara,dp1 037,"57:51,179","57:51,179",,,8
Tatsuma Kitahara,dp1 038,"57:52,274","57:52,274",,,8
Tatsuma Kitahara,dp1 039,"57:53,396","57:53,396",,,8
Tatsuma Kitahara,dp1 040,"57:54,388","57:54,388",,,8
Tatsuma Kitahara,dp1 041,"57:55,560","57:55,560",,,8
Tatsuma Kitahara,dp1 042,"57:57,022","57:57,022",,,8
Tatsuma Kitahara,dp1 043,"57:58,874","57:58,874",,,8
Tatsuma Kitahara,dp1 044,"58:00,719","58:00,719",,,8
Tatsuma Kitahara,dp1 045,"58:02,469","58:02,469",,,8
Tatsuma Kitahara,dp1 046,"58:04,007","58:04,007",,,8
Tatsuma Kitahara,dp1 047,"58:05,398","58:05,398",,,8
Tatsuma Kitahara,dp1 048,"58:06,856","58:06,856",,,8
Tatsuma Kitahara,dp1 049,"58:08,295","58:08,295",,,8
Tatsuma Kitahara,dp1 050,"58:09,367","58:09,367",,,8
Tatsuma Kitahara,dp1 051,"58:10,849","58:10,849",,,8
Tatsuma Kitahara,dp1 052,"58:13,163","58:13,163",,,8
Tatsuma Kitahara,dm1 001,"58:13,784","58:13,784",,,8
Tatsuma Kitahara,dm1 002,"58:15,979","58:15,979",,,8
Tatsuma Kitahara,dm1 003,"58:17,701","58:17,701",,,8
Tatsuma Kitahara,dm1 004,"58:19,535","58:19,535",,,8
Tatsuma Kitahara,dm1 005,"58:20,631","58:20,631",,,8
Tatsuma Kitahara,dm1 006,"58:21,693","58:21,693",,,8
Tatsuma Kitahara,dm1 007,"58:22,419","58:22,419",,,8
Tatsuma Kitahara,dm1 008,"58:23,524","58:23,524",,,8
Tatsuma Kitahara,dm1 009,"58:24,252","58:24,252",,,8
Tatsuma Kitahara,dm1 010,"58:25,009","58:25,009",,,8
Tatsuma Kitahara,dm1 011,"58:25,780","58:25,780",,,8
Tatsuma Kitahara,dm1 012,"58:26,838","58:26,838",,,8
Tatsuma Kitahara,dm1 013,"58:28,632","58:28,632",,,8
Tatsuma Kitahara,dm1 014,"58:29,373","58:29,373",,,8
Tatsuma Kitahara,dm1 015,"58:30,781","58:30,781",,,8
Tatsuma Kitahara,dm1 016,"58:31,818","58:31,818",,,8
Tatsuma Kitahara,dm1 017,"58:32,639","58:32,639",,,8
Tatsuma Kitahara,dm1 018,"58:33,622","58:33,622",,,8
Tatsuma Kitahara,dm1 019,"58:34,642","58:34,642",,,8
Tatsuma Kitahara,dm1 020,"58:35,620","58:35,620",,,8
Tatsuma Kitahara,dm1 021,"58:36,621","58:36,621",,,8
Tatsuma Kitahara,dm1 022,"58:37,665","58:37,665",,,8
Tatsuma Kitahara,dm1 023,"58:38,809","58:38,809",,,8
Tatsuma Kitahara,dm1 024,"58:39,797","58:39,797",,,8
Tatsuma Kitahara,dm1 025,"58:40,573","58:40,573",,,8
Tatsuma Kitahara,dm1 026,"58:41,584","58:41,584",,,8
Tatsuma Kitahara,dm1 027,"58:43,121","58:43,121",,,8
Tatsuma Kitahara,dm1 028,"58:44,219","58:44,219",,,8
Tatsuma Kitahara,dm1 029,"58:45,665","58:45,665",,,8
Tatsuma Kitahara,dm1 030,"58:46,770","58:46,770",,,8
Tatsuma Kitahara,dm1 031,"58:47,790","58:47,790",,,8
Tatsuma Kitahara,dm1 032,"58:48,959","58:48,959",,,8
Tatsuma Kitahara,dm1 033,"58:50,360","58:50,360",,,8
Tatsuma Kitahara,dm1 034,"58:51,134","58:51,134",,,8
Tatsuma Kitahara,dm1 035,"58:52,359","58:52,359",,,8
Tatsuma Kitahara,dm1 036,"58:53,683","58:53,683",,,8
Tatsuma Kitahara,dm1 037,"58:54,722","58:54,722",,,8
Tatsuma Kitahara,dm1 038,"58:55,901","58:55,901",,,8
Tatsuma Kitahara,dm1 039,"58:56,803","58:56,803",,,8
Tatsuma Kitahara,dm1 040,"58:57,869","58:57,869",,,8
Tatsuma Kitahara,dm1 041,"58:59,010","58:59,010",,,8
Tatsuma Kitahara,dm1 042,"59:00,252","59:00,252",,,8
