Athlete,Name,Start,Stop,Depth_1,Depth_2,Day
Sunyoung Kim,hips 001,"1:01:54,768","1:01:54,768",,,5
Sunyoung Kim,hips 002,"1:01:55,678","1:01:55,678",,,5
Sunyoung Kim,hips 003,"1:01:56,748","1:01:56,748",,,5
Sunyoung Kim,hips 004,"1:01:57,898","1:01:57,898",,,5
Sunyoung Kim,hips 005,"1:01:59,278","1:01:59,278",,,5
Sunyoung Kim,hips 006,"1:02:00,368","1:02:00,368",,,5
Sunyoung Kim,hips 007,"1:02:01,658","1:02:01,658",,,5
Sunyoung Kim,hips 008,"1:02:03,008","1:02:03,008",,,5
Sunyoung Kim,hips 009,"1:02:04,278","1:02:04,278",,,5
Sunyoung Kim,hips 010,"1:02:05,658","1:02:05,658",,,5
Sunyoung Kim,hips 011,"1:02:07,008","1:02:07,008",,,5
Sunyoung Kim,hips 012,"1:02:08,438","1:02:08,438",,,5
Sunyoung Kim,hips 013,"1:02:09,828","1:02:09,828",,,5
Sunyoung Kim,hips 014,"1:02:11,268","1:02:11,268",,,5
Sunyoung Kim,hips 015,"1:02:13,888","1:02:13,888",,,5
Sunyoung Kim,hips 016,"1:02:51,533","1:02:51,533",,,5
Sunyoung Kim,hips 017,"1:02:53,628","1:02:53,628",,,5
Sunyoung Kim,hips 018,"1:02:55,108","1:02:55,108",,,5
Sunyoung Kim,hips 019,"1:02:56,098","1:02:56,098",,,5
Sunyoung Kim,hips 020,"1:02:57,188","1:02:57,188",,,5
Sunyoung Kim,hips 021,"1:02:58,028","1:02:58,028",,,5
Sunyoung Kim,hips 022,"1:02:59,128","1:02:59,128",,,5
Sunyoung Kim,hips 023,"1:03:00,218","1:03:00,218",,,5
Sunyoung Kim,hips 024,"1:03:01,268","1:03:01,268",,,5
Sunyoung Kim,hips 025,"1:03:02,458","1:03:02,458",,,5
Sunyoung Kim,hips 026,"1:03:03,568","1:03:03,568",,,5
Sunyoung Kim,hips 027,"1:03:04,638","1:03:04,638",,,5
Sunyoung Kim,hips 028,"1:03:05,708","1:03:05,708",,,5
Sunyoung Kim,hips 029,"1:03:06,658","1:03:06,658",,,5
Sunyoung Kim,hips 030,"1:03:07,558","1:03:07,558",,,5
Sunyoung Kim,hips 031,"1:03:08,608","1:03:08,608",,,5
Sunyoung Kim,hips 032,"1:03:09,908","1:03:09,908",,,5
Sunyoung Kim,hips 033,"1:03:11,038","1:03:11,038",,,5
Sunyoung Kim,hips 034,"1:03:11,898","1:03:11,898",,,5
Sunyoung Kim,hips 035,"1:03:13,188","1:03:13,188",,,5
Sunyoung Kim,hips 036,"1:03:14,258","1:03:14,258",,,5
Sunyoung Kim,hips 037,"1:03:15,318","1:03:15,318",,,5
Sunyoung Kim,hips 038,"1:03:16,368","1:03:16,368",,,5
Sunyoung Kim,hips 039,"1:03:17,458","1:03:17,458",,,5
Sunyoung Kim,hips 040,"1:03:18,568","1:03:18,568",,,5
Sunyoung Kim,hips 041,"1:03:19,568","1:03:19,568",,,5
Sunyoung Kim,hips 042,"1:03:20,628","1:03:20,628",,,5
Sunyoung Kim,hips 043,"1:03:21,638","1:03:21,638",,,5
Sunyoung Kim,hips 044,"1:03:22,638","1:03:22,638",,,5
Sunyoung Kim,hips 045,"1:03:23,818","1:03:23,818",,,5
Sunyoung Kim,hips 046,"1:03:25,028","1:03:25,028",,,5
Sunyoung Kim,hips 047,"1:03:26,048","1:03:26,048",,,5
Sunyoung Kim,hips 048,"1:03:27,258","1:03:27,258",,,5
Sunyoung Kim,hips 049,"1:03:28,438","1:03:28,438",,,5
Sunyoung Kim,hips 050,"1:03:29,528","1:03:29,528",,,5
Sunyoung Kim,hips 051,"1:03:30,678","1:03:30,678",,,5
Sunyoung Kim,hips 052,"1:03:31,798","1:03:31,798",,,5
Sunyoung Kim,hips 053,"1:03:32,828","1:03:32,828",,,5
Sunyoung Kim,hips 054,"1:03:33,898","1:03:33,898",,,5
Sunyoung Kim,hips 055,"1:03:34,868","1:03:34,868",,,5
Sunyoung Kim,hips 056,"1:03:36,058","1:03:36,058",,,5
Sunyoung Kim,hips 057,"1:03:37,338","1:03:37,338",,,5
Sunyoung Kim,hips 058,"1:03:38,968","1:03:38,968",,,5
Sunyoung Kim,knees 001,"1:01:54,608","1:01:54,608",,,5
Sunyoung Kim,knees 002,"1:01:55,878","1:01:55,878",,,5
Sunyoung Kim,knees 003,"1:01:56,738","1:01:56,738",,,5
Sunyoung Kim,knees 004,"1:01:57,988","1:01:57,988",,,5
Sunyoung Kim,knees 005,"1:01:59,198","1:01:59,198",,,5
Sunyoung Kim,knees 006,"1:02:00,348","1:02:00,348",,,5
Sunyoung Kim,knees 007,"1:02:01,528","1:02:01,528",,,5
Sunyoung Kim,knees 008,"1:02:02,938","1:02:02,938",,,5
Sunyoung Kim,knees 009,"1:02:04,208","1:02:04,208",,,5
Sunyoung Kim,knees 010,"1:02:05,828","1:02:05,828",,,5
Sunyoung Kim,knees 011,"1:02:06,878","1:02:06,878",,,5
Sunyoung Kim,knees 012,"1:02:08,438","1:02:08,438",,,5
Sunyoung Kim,knees 013,"1:02:09,608","1:02:09,608",,,5
Sunyoung Kim,knees 014,"1:02:10,948","1:02:10,948",,,5
Sunyoung Kim,knees 015,"1:02:13,578","1:02:13,578",,,5
Sunyoung Kim,knees 016,"1:02:15,078","1:02:15,078",,,5
Sunyoung Kim,knees 017,"1:02:52,028","1:02:52,028",,,5
Sunyoung Kim,knees 018,"1:02:53,708","1:02:53,708",,,5
Sunyoung Kim,knees 019,"1:02:54,978","1:02:54,978",,,5
Sunyoung Kim,knees 020,"1:02:55,978","1:02:55,978",,,5
Sunyoung Kim,knees 021,"1:02:57,168","1:02:57,168",,,5
Sunyoung Kim,knees 022,"1:02:57,998","1:02:57,998",,,5
Sunyoung Kim,knees 023,"1:02:59,148","1:02:59,148",,,5
Sunyoung Kim,knees 024,"1:03:00,278","1:03:00,278",,,5
Sunyoung Kim,knees 025,"1:03:01,248","1:03:01,248",,,5
Sunyoung Kim,knees 026,"1:03:02,458","1:03:02,458",,,5
Sunyoung Kim,knees 027,"1:03:03,478","1:03:03,478",,,5
Sunyoung Kim,knees 028,"1:03:04,668","1:03:04,668",,,5
Sunyoung Kim,knees 029,"1:03:05,638","1:03:05,638",,,5
Sunyoung Kim,knees 030,"1:03:06,598","1:03:06,598",,,5
Sunyoung Kim,knees 031,"1:03:07,748","1:03:07,748",,,5
Sunyoung Kim,knees 032,"1:03:08,838","1:03:08,838",,,5
Sunyoung Kim,knees 033,"1:03:09,928","1:03:09,928",,,5
Sunyoung Kim,knees 034,"1:03:11,038","1:03:11,038",,,5
Sunyoung Kim,knees 035,"1:03:11,938","1:03:11,938",,,5
Sunyoung Kim,knees 036,"1:03:13,088","1:03:13,088",,,5
Sunyoung Kim,knees 037,"1:03:14,118","1:03:14,118",,,5
Sunyoung Kim,knees 038,"1:03:15,208","1:03:15,208",,,5
Sunyoung Kim,knees 039,"1:03:16,258","1:03:16,258",,,5
Sunyoung Kim,knees 040,"1:03:17,288","1:03:17,288",,,5
Sunyoung Kim,knees 041,"1:03:18,438","1:03:18,438",,,5
Sunyoung Kim,knees 042,"1:03:19,488","1:03:19,488",,,5
Sunyoung Kim,knees 043,"1:03:20,518","1:03:20,518",,,5
Sunyoung Kim,knees 044,"1:03:21,508","1:03:21,508",,,5
Sunyoung Kim,knees 045,"1:03:22,458","1:03:22,458",,,5
Sunyoung Kim,knees 046,"1:03:23,588","1:03:23,588",,,5
Sunyoung Kim,knees 047,"1:03:24,698","1:03:24,698",,,5
Sunyoung Kim,knees 048,"1:03:25,878","1:03:25,878",,,5
Sunyoung Kim,knees 049,"1:03:27,008","1:03:27,008",,,5
Sunyoung Kim,knees 050,"1:03:28,138","1:03:28,138",,,5
Sunyoung Kim,knees 051,"1:03:29,478","1:03:29,478",,,5
Sunyoung Kim,knees 052,"1:03:30,658","1:03:30,658",,,5
Sunyoung Kim,knees 053,"1:03:31,728","1:03:31,728",,,5
Sunyoung Kim,knees 054,"1:03:32,738","1:03:32,738",,,5
Sunyoung Kim,knees 055,"1:03:33,708","1:03:33,708",,,5
Sunyoung Kim,knees 056,"1:03:34,648","1:03:34,648",,,5
Sunyoung Kim,knees 057,"1:03:35,798","1:03:35,798",,,5
Sunyoung Kim,knees 058,"1:03:36,968","1:03:36,968",,,5
Sunyoung Kim,knees 059,"1:03:38,378","1:03:38,378",,,5
Sunyoung Kim,ankles 001,"1:01:54,338","1:01:54,338",,,5
Sunyoung Kim,ankles 002,"1:01:55,528","1:01:55,528",,,5
Sunyoung Kim,ankles 003,"1:01:56,638","1:01:56,638",,,5
Sunyoung Kim,ankles 004,"1:01:57,468","1:01:57,468",,,5
Sunyoung Kim,ankles 005,"1:01:58,778","1:01:58,778",,,5
Sunyoung Kim,ankles 006,"1:01:59,808","1:01:59,808",,,5
Sunyoung Kim,ankles 007,"1:02:01,028","1:02:01,028",,,5
Sunyoung Kim,ankles 008,"1:02:02,538","1:02:02,538",,,5
Sunyoung Kim,ankles 009,"1:02:03,788","1:02:03,788",,,5
Sunyoung Kim,ankles 010,"1:02:05,178","1:02:05,178",,,5
Sunyoung Kim,ankles 011,"1:02:06,448","1:02:06,448",,,5
Sunyoung Kim,ankles 012,"1:02:07,698","1:02:07,698",,,5
Sunyoung Kim,ankles 013,"1:02:09,268","1:02:09,268",,,5
Sunyoung Kim,ankles 014,"1:02:10,498","1:02:10,498",,,5
Sunyoung Kim,ankles 015,"1:02:12,128","1:02:12,128",,,5
Sunyoung Kim,ankles 016,"1:02:13,533","1:02:13,533",,,5
Sunyoung Kim,ankles 017,"1:02:14,770","1:02:14,770",,,5
Sunyoung Kim,ankles 018,"1:02:52,060","1:02:52,060",,,5
Sunyoung Kim,ankles 019,"1:02:53,410","1:02:53,410",,,5
Sunyoung Kim,ankles 020,"1:02:54,700","1:02:54,700",,,5
Sunyoung Kim,ankles 021,"1:02:55,570","1:02:55,570",,,5
Sunyoung Kim,ankles 022,"1:02:56,690","1:02:56,690",,,5
Sunyoung Kim,ankles 023,"1:02:57,770","1:02:57,770",,,5
Sunyoung Kim,ankles 024,"1:02:58,720","1:02:58,720",,,5
Sunyoung Kim,ankles 025,"1:02:59,870","1:02:59,870",,,5
Sunyoung Kim,ankles 026,"1:03:01,040","1:03:01,040",,,5
Sunyoung Kim,ankles 027,"1:03:01,990","1:03:01,990",,,5
Sunyoung Kim,ankles 028,"1:03:02,980","1:03:02,980",,,5
Sunyoung Kim,ankles 029,"1:03:04,250","1:03:04,250",,,5
Sunyoung Kim,ankles 030,"1:03:05,380","1:03:05,380",,,5
Sunyoung Kim,ankles 031,"1:03:06,270","1:03:06,270",,,5
Sunyoung Kim,ankles 032,"1:03:07,260","1:03:07,260",,,5
Sunyoung Kim,ankles 033,"1:03:08,410","1:03:08,410",,,5
Sunyoung Kim,ankles 034,"1:03:09,560","1:03:09,560",,,5
Sunyoung Kim,ankles 035,"1:03:10,690","1:03:10,690",,,5
Sunyoung Kim,ankles 036,"1:03:11,580","1:03:11,580",,,5
Sunyoung Kim,ankles 037,"1:03:12,610","1:03:12,610",,,5
Sunyoung Kim,ankles 038,"1:03:13,660","1:03:13,660",,,5
Sunyoung Kim,ankles 039,"1:03:14,870","1:03:14,870",,,5
Sunyoung Kim,ankles 040,"1:03:15,970","1:03:15,970",,,5
Sunyoung Kim,ankles 041,"1:03:16,910","1:03:16,910",,,5
Sunyoung Kim,ankles 042,"1:03:17,930","1:03:17,930",,,5
Sunyoung Kim,ankles 043,"1:03:19,100","1:03:19,100",,,5
Sunyoung Kim,ankles 044,"1:03:20,090","1:03:20,090",,,5
Sunyoung Kim,ankles 045,"1:03:21,220","1:03:21,220",,,5
Sunyoung Kim,ankles 046,"1:03:22,090","1:03:22,090",,,5
Sunyoung Kim,ankles 047,"1:03:23,240","1:03:23,240",,,5
Sunyoung Kim,ankles 048,"1:03:24,450","1:03:24,450",,,5
Sunyoung Kim,ankles 049,"1:03:25,560","1:03:25,560",,,5
Sunyoung Kim,ankles 050,"1:03:26,610","1:03:26,610",,,5
Sunyoung Kim,ankles 051,"1:03:27,890","1:03:27,890",,,5
Sunyoung Kim,ankles 052,"1:03:29,040","1:03:29,040",,,5
Sunyoung Kim,ankles 053,"1:03:30,190","1:03:30,190",,,5
Sunyoung Kim,ankles 054,"1:03:31,440","1:03:31,440",,,5
Sunyoung Kim,ankles 055,"1:03:32,510","1:03:32,510",,,5
Sunyoung Kim,ankles 056,"1:03:33,420","1:03:33,420",,,5
Sunyoung Kim,ankles 057,"1:03:34,310","1:03:34,310",,,5
Sunyoung Kim,ankles 058,"1:03:35,440","1:03:35,440",,,5
Sunyoung Kim,ankles 059,"1:03:36,590","1:03:36,590",,,5
Sunyoung Kim,ankles 060,"1:03:38,040","1:03:38,040",,,5
Sunyoung Kim,desc 001,"1:01:51,438","1:02:45,533",,,5
Sunyoung Kim,asc 001,"1:02:50,718","1:03:47,968",,,5
Sunyoung Kim,virage 001,"1:02:45,533","1:02:50,718",,,5
Sunyoung Kim,arms_up 001,"1:01:54,200","1:01:54,200",,,5
Sunyoung Kim,arms_up 002,"1:02:53,188","1:02:53,188",,,5
Sunyoung Kim,arms_down 001,"1:02:51,533","1:02:51,533",,,5
Sunyoung Kim,tag 001,"1:02:47,332","1:02:47,332",,,5
Sunyoung Kim,dp1 001,"1:01:51,528","1:01:51,528",,,5
Sunyoung Kim,dp1 002,"1:01:52,158","1:01:52,158",,,5
Sunyoung Kim,dp1 003,"1:01:52,518","1:01:52,518",,,5
Sunyoung Kim,dp1 004,"1:01:52,878","1:01:52,878",,,5
Sunyoung Kim,dp1 005,"1:01:53,248","1:01:53,248",,,5
Sunyoung Kim,dp1 006,"1:01:53,628","1:01:53,628",,,5
Sunyoung Kim,dp1 007,"1:01:54,038","1:01:54,038",,,5
Sunyoung Kim,dp1 008,"1:01:54,458","1:01:54,458",,,5
Sunyoung Kim,dp1 009,"1:01:54,888","1:01:54,888",,,5
Sunyoung Kim,dp1 010,"1:01:55,268","1:01:55,268",,,5
Sunyoung Kim,dp1 011,"1:01:55,668","1:01:55,668",,,5
Sunyoung Kim,dp1 012,"1:02:00,918","1:02:00,918",,,5
Sunyoung Kim,dp1 013,"1:02:01,518","1:02:01,518",,,5
Sunyoung Kim,dp1 014,"1:02:01,938","1:02:01,938",,,5
Sunyoung Kim,dp1 015,"1:02:02,978","1:02:02,978",,,5
Sunyoung Kim,dp1 016,"1:02:04,038","1:02:04,038",,,5
Sunyoung Kim,dp1 017,"1:02:05,108","1:02:05,108",,,5
Sunyoung Kim,dp1 018,"1:02:06,238","1:02:06,238",,,5
Sunyoung Kim,dp1 019,"1:02:07,268","1:02:07,268",,,5
Sunyoung Kim,dp1 020,"1:02:07,758","1:02:07,758",,,5
Sunyoung Kim,dp1 021,"1:02:08,438","1:02:08,438",,,5
Sunyoung Kim,dp1 022,"1:02:09,168","1:02:09,168",,,5
Sunyoung Kim,dp1 023,"1:02:09,898","1:02:09,898",,,5
Sunyoung Kim,dp1 024,"1:02:10,568","1:02:10,568",,,5
Sunyoung Kim,dp1 025,"1:02:11,268","1:02:11,268",,,5
Sunyoung Kim,dp1 026,"1:02:12,098","1:02:12,098",,,5
Sunyoung Kim,dp1 027,"1:02:13,148","1:02:13,148",,,5
Sunyoung Kim,dp1 028,"1:02:14,078","1:02:14,078",,,5
Sunyoung Kim,dp1 029,"1:02:15,288","1:02:15,288",,,5
Sunyoung Kim,dp1 030,"1:02:16,418","1:02:16,418",,,5
Sunyoung Kim,dp1 031,"1:02:17,108","1:02:17,108",,,5
Sunyoung Kim,dp1 032,"1:02:17,838","1:02:17,838",,,5
Sunyoung Kim,dp1 033,"1:02:18,968","1:02:18,968",,,5
Sunyoung Kim,dp1 034,"1:02:20,038","1:02:20,038",,,5
Sunyoung Kim,dp1 035,"1:02:20,738","1:02:20,738",,,5
Sunyoung Kim,dp1 036,"1:02:21,638","1:02:21,638",,,5
Sunyoung Kim,dp1 037,"1:02:22,968","1:02:22,968",,,5
Sunyoung Kim,dp1 038,"1:02:23,668","1:02:23,668",,,5
Sunyoung Kim,dp1 039,"1:02:24,738","1:02:24,738",,,5
Sunyoung Kim,dp1 040,"1:02:25,508","1:02:25,508",,,5
Sunyoung Kim,dp1 041,"1:02:26,518","1:02:26,518",,,5
Sunyoung Kim,dp1 042,"1:02:27,308","1:02:27,308",,,5
Sunyoung Kim,dp1 043,"1:02:28,398","1:02:28,398",,,5
Sunyoung Kim,dp1 044,"1:02:29,468","1:02:29,468",,,5
Sunyoung Kim,dp1 045,"1:02:30,438","1:02:30,438",,,5
Sunyoung Kim,dp1 046,"1:02:31,838","1:02:31,838",,,5
Sunyoung Kim,dp1 047,"1:02:32,748","1:02:32,748",,,5
Sunyoung Kim,dp1 048,"1:02:33,468","1:02:33,468",,,5
Sunyoung Kim,dp1 049,"1:02:34,178","1:02:34,178",,,5
Sunyoung Kim,dp1 050,"1:02:35,228","1:02:35,228",,,5
Sunyoung Kim,dp1 051,"1:02:35,998","1:02:35,998",,,5
Sunyoung Kim,dp1 052,"1:02:36,778","1:02:36,778",,,5
Sunyoung Kim,dp1 053,"1:02:37,728","1:02:37,728",,,5
Sunyoung Kim,dp1 054,"1:02:38,558","1:02:38,558",,,5
Sunyoung Kim,dp1 055,"1:02:39,378","1:02:39,378",,,5
Sunyoung Kim,dp1 056,"1:02:40,308","1:02:40,308",,,5
Sunyoung Kim,dp1 057,"1:02:41,078","1:02:41,078",,,5
Sunyoung Kim,dp1 058,"1:02:41,968","1:02:41,968",,,5
Sunyoung Kim,dp1 059,"1:02:43,678","1:02:43,678",,,5
Sunyoung Kim,dp1 060,"1:02:44,428","1:02:44,428",,,5
Sunyoung Kim,dp1 061,"1:02:45,758","1:02:45,758",,,5
Sunyoung Kim,dp1 062,"1:02:46,278","1:02:46,278",,,5
Sunyoung Kim,dm1 001,"1:02:49,958","1:02:49,958",,,5
Sunyoung Kim,dm1 002,"1:02:51,658","1:02:51,658",,,5
Sunyoung Kim,dm1 003,"1:02:53,458","1:02:53,458",,,5
Sunyoung Kim,dm1 004,"1:02:55,258","1:02:55,258",,,5
Sunyoung Kim,dm1 005,"1:02:56,268","1:02:56,268",,,5
Sunyoung Kim,dm1 006,"1:02:57,458","1:02:57,458",,,5
Sunyoung Kim,dm1 007,"1:02:58,408","1:02:58,408",,,5
Sunyoung Kim,dm1 008,"1:02:59,278","1:02:59,278",,,5
Sunyoung Kim,dm1 009,"1:02:59,968","1:02:59,968",,,5
Sunyoung Kim,dm1 010,"1:03:00,418","1:03:00,418",,,5
Sunyoung Kim,dm1 011,"1:03:01,068","1:03:01,068",,,5
Sunyoung Kim,dm1 012,"1:03:01,798","1:03:01,798",,,5
Sunyoung Kim,dm1 013,"1:03:02,498","1:03:02,498",,,5
Sunyoung Kim,dm1 014,"1:03:03,868","1:03:03,868",,,5
Sunyoung Kim,dm1 015,"1:03:04,768","1:03:04,768",,,5
Sunyoung Kim,dm1 016,"1:03:05,738","1:03:05,738",,,5
Sunyoung Kim,dm1 017,"1:03:06,738","1:03:06,738",,,5
Sunyoung Kim,dm1 018,"1:03:07,588","1:03:07,588",,,5
Sunyoung Kim,dm1 019,"1:03:08,348","1:03:08,348",,,5
Sunyoung Kim,dm1 020,"1:03:09,088","1:03:09,088",,,5
Sunyoung Kim,dm1 021,"1:03:09,698","1:03:09,698",,,5
Sunyoung Kim,dm1 022,"1:03:10,528","1:03:10,528",,,5
Sunyoung Kim,dm1 023,"1:03:11,138","1:03:11,138",,,5
Sunyoung Kim,dm1 024,"1:03:12,308","1:03:12,308",,,5
Sunyoung Kim,dm1 025,"1:03:13,078","1:03:13,078",,,5
Sunyoung Kim,dm1 026,"1:03:13,848","1:03:13,848",,,5
Sunyoung Kim,dm1 027,"1:03:14,878","1:03:14,878",,,5
Sunyoung Kim,dm1 028,"1:03:15,628","1:03:15,628",,,5
Sunyoung Kim,dm1 029,"1:03:16,318","1:03:16,318",,,5
Sunyoung Kim,dm1 030,"1:03:17,018","1:03:17,018",,,5
Sunyoung Kim,dm1 031,"1:03:17,748","1:03:17,748",,,5
Sunyoung Kim,dm1 032,"1:03:19,668","1:03:19,668",,,5
Sunyoung Kim,dm1 033,"1:03:20,318","1:03:20,318",,,5
Sunyoung Kim,dm1 034,"1:03:20,918","1:03:20,918",,,5
Sunyoung Kim,dm1 035,"1:03:22,838","1:03:22,838",,,5
Sunyoung Kim,dm1 036,"1:03:23,598","1:03:23,598",,,5
Sunyoung Kim,dm1 037,"1:03:24,308","1:03:24,308",,,5
Sunyoung Kim,dm1 038,"1:03:25,318","1:03:25,318",,,5
Sunyoung Kim,dm1 039,"1:03:26,508","1:03:26,508",,,5
Sunyoung Kim,dm1 040,"1:03:27,578","1:03:27,578",,,5
Sunyoung Kim,dm1 041,"1:03:28,468","1:03:28,468",,,5
Sunyoung Kim,dm1 042,"1:03:29,398","1:03:29,398",,,5
Sunyoung Kim,dm1 043,"1:03:30,218","1:03:30,218",,,5
Sunyoung Kim,dm1 044,"1:03:31,188","1:03:31,188",,,5
Sunyoung Kim,dm1 045,"1:03:32,298","1:03:32,298",,,5
Sunyoung Kim,dm1 046,"1:03:33,408","1:03:33,408",,,5
Sunyoung Kim,dm1 047,"1:03:34,138","1:03:34,138",,,5
Sunyoung Kim,dm1 048,"1:03:34,978","1:03:34,978",,,5
Sunyoung Kim,dm1 049,"1:03:35,848","1:03:35,848",,,5
Sunyoung Kim,dm1 050,"1:03:37,168","1:03:37,168",,,5
Sunyoung Kim,dm1 051,"1:03:38,088","1:03:38,088",,,5
Sunyoung Kim,dm1 052,"1:03:38,898","1:03:38,898",,,5
